LAB09/simulation/qsim/Processador.msim.vcd
$comment
	File created using the following command:
		vcd file Processador.msim.vcd -direction
$end
$date
	Tue May 08 17:42:38 2018
$end
$version
	ModelSim Version 10.1d
$end
$timescale
	1ps
$end
$scope module SPI_SD_vlg_vec_tst $end
$var reg 1 ! clk $end
$var reg 8 " instruction [7:0] $end
$var reg 1 # MISO $end
$var wire 1 $ MOSI $end
$var wire 1 % out_somador [7] $end
$var wire 1 & out_somador [6] $end
$var wire 1 ' out_somador [5] $end
$var wire 1 ( out_somador [4] $end
$var wire 1 ) out_somador [3] $end
$var wire 1 * out_somador [2] $end
$var wire 1 + out_somador [1] $end
$var wire 1 , out_somador [0] $end
$var wire 1 - status_reg [7] $end
$var wire 1 . status_reg [6] $end
$var wire 1 / status_reg [5] $end
$var wire 1 0 status_reg [4] $end
$var wire 1 1 status_reg [3] $end
$var wire 1 2 status_reg [2] $end
$var wire 1 3 status_reg [1] $end
$var wire 1 4 status_reg [0] $end
$var wire 1 5 sampler $end
$scope module i1 $end
$var wire 1 6 gnd $end
$var wire 1 7 vcc $end
$var wire 1 8 unknown $end
$var tri1 1 9 devclrn $end
$var tri1 1 : devpor $end
$var tri1 1 ; devoe $end
$var wire 1 < clk~combout $end
$var wire 1 = MISO~combout $end
$var wire 1 > CONTADOR000|reg|FFD0|qS~0_combout $end
$var wire 1 ? CONTADOR000|reg|FFD0|qS~regout $end
$var wire 1 @ CONTADOR000|reg|FFD1|qS~0_combout $end
$var wire 1 A CONTADOR000|reg|FFD1|qS~regout $end
$var wire 1 B CONTADOR000|reg|FFD2|qS~0_combout $end
$var wire 1 C CONTADOR000|reg|FFD2|qS~regout $end
$var wire 1 D COMPARA_89|Equal0~0_combout $end
$var wire 1 E CONTADOR000|reg|FFD3|qS~regout $end
$var wire 1 F in_reg[0]~1_combout $end
$var wire 1 G FFD0|qS~regout $end
$var wire 1 H in_reg[1]~2_combout $end
$var wire 1 I FFD1|qS~regout $end
$var wire 1 J in_reg[2]~3_combout $end
$var wire 1 K FFD2|qS~regout $end
$var wire 1 L in_reg[3]~4_combout $end
$var wire 1 M FFD3|qS~regout $end
$var wire 1 N in_reg[4]~5_combout $end
$var wire 1 O FFD4|qS~regout $end
$var wire 1 P in_reg[5]~6_combout $end
$var wire 1 Q FFD5|qS~regout $end
$var wire 1 R in_reg[6]~7_combout $end
$var wire 1 S FFD6|qS~regout $end
$var wire 1 T in_reg[7]~0_combout $end
$var wire 1 U FFD7|qS~regout $end
$var wire 1 V instruction~combout [7] $end
$var wire 1 W instruction~combout [6] $end
$var wire 1 X instruction~combout [5] $end
$var wire 1 Y instruction~combout [4] $end
$var wire 1 Z instruction~combout [3] $end
$var wire 1 [ instruction~combout [2] $end
$var wire 1 \ instruction~combout [1] $end
$var wire 1 ] instruction~combout [0] $end
$upscope $end
$upscope $end
$enddefinitions $end
#0
$dumpvars
0!
b1001000 "
1#
0$
0,
0+
0*
0)
0(
0'
0&
0%
04
03
02
01
00
0/
0.
0-
x5
06
17
x8
19
1:
1;
0<
1=
1>
0?
0@
0A
0B
0C
0D
0E
1F
0G
0H
0I
0J
0K
0L
0M
0N
0O
0P
0Q
0R
0S
0T
0U
0]
0\
0[
1Z
0Y
0X
1W
0V
$end
#5000
1!
1<
05
1G
1?
1H
1@
0>
14
1,
#10000
0!
0<
15
#15000
1!
1<
05
1I
1A
0?
1J
1>
13
1+
0,
#20000
0!
0<
15
#25000
1!
1<
05
1K
1?
1L
1B
0@
0>
12
1,
#30000
0!
0<
15
#35000
1!
1<
05
1M
1C
0A
0?
1N
1>
11
1*
0+
0,
#40000
0!
0<
15
#45000
1!
1<
05
1O
1?
1P
1@
0>
10
1,
#50000
0!
0<
15
#55000
1!
1<
05
1Q
1A
0?
1R
1>
1/
1+
0,
#60000
0!
0<
15
#65000
1!
1<
05
1S
1?
1T
1D
0B
0@
0>
1.
1,
0T
0P
0N
0J
0H
0F
#70000
0!
0<
15
#75000
1!
1<
05
0Q
0O
0K
0I
0G
1E
0C
0A
0?
0D
1>
0/
00
02
03
04
1)
0*
0+
0,
0E
1T
0R
1N
0L
1F
0)
#80000
0!
0<
15
#85000
1!
1<
05
1U
0S
1O
0M
1G
1?
0T
1P
0N
1H
1@
0>
1-
1$
0.
10
01
14
1,
#90000
0!
0<
15
#95000
1!
1<
05
0U
1Q
0O
1I
1A
0?
1R
0P
1J
1>
0-
0$
1/
00
13
1+
0,
#100000
0!
0<
15
#105000
1!
1<
05
1S
0Q
1K
1?
1T
0R
1L
1B
0@
0>
1.
0/
12
1,
#110000
0!
0<
15
#115000
1!
1<
05
1U
0S
1M
1C
0A
0?
0T
1N
1>
1-
1$
0.
11
1*
0+
0,
#120000
0!
0<
15
#125000
1!
1<
05
0U
1O
1?
1P
1@
0>
0-
0$
10
1,
#130000
0!
0<
15
#135000
1!
1<
05
1Q
1A
0?
1R
1>
1/
1+
0,
#140000
0!
0<
15
#145000
1!
1<
05
1S
1?
1T
1D
0B
0@
0>
1.
1,
0T
0P
0N
0J
0H
0F
#150000
0!
0<
15
#155000
1!
1<
05
0Q
0O
0K
0I
0G
1E
0C
0A
0?
0D
1>
0/
00
02
03
04
1)
0*
0+
0,
0E
1T
0R
1N
0L
1F
0)
#160000
0!
0<
15
#165000
1!
1<
05
1U
0S
1O
0M
1G
1?
0T
1P
0N
1H
1@
0>
1-
1$
0.
10
01
14
1,
#170000
0!
0<
15
#175000
1!
1<
05
0U
1Q
0O
1I
1A
0?
1R
0P
1J
1>
0-
0$
1/
00
13
1+
0,
#180000
0!
0<
15
#185000
1!
1<
05
1S
0Q
1K
1?
1T
0R
1L
1B
0@
0>
1.
0/
12
1,
#190000
0!
0<
15
#195000
1!
1<
05
1U
0S
1M
1C
0A
0?
0T
1N
1>
1-
1$
0.
11
1*
0+
0,
#200000
0!
0<
15
#205000
1!
1<
05
0U
1O
1?
1P
1@
0>
0-
0$
10
1,
#210000
0!
0<
15
#215000
1!
1<
05
1Q
1A
0?
1R
1>
1/
1+
0,
#220000
0!
0<
15
#225000
1!
1<
05
1S
1?
1T
1D
0B
0@
0>
1.
1,
0T
0P
0N
0J
0H
0F
#230000
0!
0<
15
#235000
1!
1<
05
0Q
0O
0K
0I
0G
1E
0C
0A
0?
0D
1>
0/
00
02
03
04
1)
0*
0+
0,
0E
1T
0R
1N
0L
1F
0)
#240000
0!
0<
15
#245000
1!
1<
05
1U
0S
1O
0M
1G
1?
0T
1P
0N
1H
1@
0>
1-
1$
0.
10
01
14
1,
#250000
0!
0<
15
#255000
1!
1<
05
0U
1Q
0O
1I
1A
0?
1R
0P
1J
1>
0-
0$
1/
00
13
1+
0,
#260000
0!
0<
15
#265000
1!
1<
05
1S
0Q
1K
1?
1T
0R
1L
1B
0@
0>
1.
0/
12
1,
#270000
0!
0<
15
#275000
1!
1<
05
1U
0S
1M
1C
0A
0?
0T
1N
1>
1-
1$
0.
11
1*
0+
0,
#280000
0!
0<
15
#285000
1!
1<
05
0U
1O
1?
1P
1@
0>
0-
0$
10
1,
#290000
0!
0<
15
#295000
1!
1<
05
1Q
1A
0?
1R
1>
1/
1+
0,
#300000
0!
0<
15
#305000
1!
1<
05
1S
1?
1T
1D
0B
0@
0>
1.
1,
0T
0P
0N
0J
0H
0F
#310000
0!
0<
15
#315000
1!
1<
05
0Q
0O
0K
0I
0G
1E
0C
0A
0?
0D
1>
0/
00
02
03
04
1)
0*
0+
0,
0E
1T
0R
1N
0L
1F
0)
#320000
0!
0<
15
#325000
1!
1<
05
1U
0S
1O
0M
1G
1?
0T
1P
0N
1H
1@
0>
1-
1$
0.
10
01
14
1,
#330000
0!
0<
15
#335000
1!
1<
05
0U
1Q
0O
1I
1A
0?
1R
0P
1J
1>
0-
0$
1/
00
13
1+
0,
#340000
0!
0<
15
#345000
1!
1<
05
1S
0Q
1K
1?
1T
0R
1L
1B
0@
0>
1.
0/
12
1,
#350000
0!
0<
15
#355000
1!
1<
05
1U
0S
1M
1C
0A
0?
0T
1N
1>
1-
1$
0.
11
1*
0+
0,
#360000
0!
0<
15
#365000
1!
1<
05
0U
1O
1?
1P
1@
0>
0-
0$
10
1,
#370000
0!
0<
15
#375000
1!
1<
05
1Q
1A
0?
1R
1>
1/
1+
0,
#380000
0!
0<
15
#385000
1!
1<
05
1S
1?
1T
1D
0B
0@
0>
1.
1,
0T
0P
0N
0J
0H
0F
#390000
0!
0<
15
#395000
1!
1<
05
0Q
0O
0K
0I
0G
1E
0C
0A
0?
0D
1>
0/
00
02
03
04
1)
0*
0+
0,
0E
1T
0R
1N
0L
1F
0)
#400000
0!
0<
15
#405000
1!
1<
05
1U
0S
1O
0M
1G
1?
0T
1P
0N
1H
1@
0>
1-
1$
0.
10
01
14
1,
#410000
0!
0<
15
#415000
1!
1<
05
0U
1Q
0O
1I
1A
0?
1R
0P
1J
1>
0-
0$
1/
00
13
1+
0,
#420000
0!
0<
15
#425000
1!
1<
05
1S
0Q
1K
1?
1T
0R
1L
1B
0@
0>
1.
0/
12
1,
#430000
0!
0<
15
#435000
1!
1<
05
1U
0S
1M
1C
0A
0?
0T
1N
1>
1-
1$
0.
11
1*
0+
0,
#440000
0!
0<
15
#445000
1!
1<
05
0U
1O
1?
1P
1@
0>
0-
0$
10
1,
#450000
0!
0<
15
#455000
1!
1<
05
1Q
1A
0?
1R
1>
1/
1+
0,
#460000
0!
0<
15
#465000
1!
1<
05
1S
1?
1T
1D
0B
0@
0>
1.
1,
0T
0P
0N
0J
0H
0F
#470000
0!
0<
15
#475000
1!
1<
05
0Q
0O
0K
0I
0G
1E
0C
0A
0?
0D
1>
0/
00
02
03
04
1)
0*
0+
0,
0E
1T
0R
1N
0L
1F
0)
#480000
0!
0<
15
#485000
1!
1<
05
1U
0S
1O
0M
1G
1?
0T
1P
0N
1H
1@
0>
1-
1$
0.
10
01
14
1,
#490000
0!
0<
15
#495000
1!
1<
05
0U
1Q
0O
1I
1A
0?
1R
0P
1J
1>
0-
0$
1/
00
13
1+
0,
#500000
0!
0<
15
#505000
1!
1<
05
1S
0Q
1K
1?
1T
0R
1L
1B
0@
0>
1.
0/
12
1,
#510000
0!
0<
15
#515000
1!
1<
05
1U
0S
1M
1C
0A
0?
0T
1N
1>
1-
1$
0.
11
1*
0+
0,
#520000
0!
0<
15
#525000
1!
1<
05
0U
1O
1?
1P
1@
0>
0-
0$
10
1,
#530000
0!
0<
15
#535000
1!
1<
05
1Q
1A
0?
1R
1>
1/
1+
0,
#540000
0!
0<
15
#545000
1!
1<
05
1S
1?
1T
1D
0B
0@
0>
1.
1,
0T
0P
0N
0J
0H
0F
#550000
0!
0<
15
#555000
1!
1<
05
0Q
0O
0K
0I
0G
1E
0C
0A
0?
0D
1>
0/
00
02
03
04
1)
0*
0+
0,
0E
1T
0R
1N
0L
1F
0)
#560000
0!
0<
15
#565000
1!
1<
05
1U
0S
1O
0M
1G
1?
0T
1P
0N
1H
1@
0>
1-
1$
0.
10
01
14
1,
#570000
0!
0<
15
#575000
1!
1<
05
0U
1Q
0O
1I
1A
0?
1R
0P
1J
1>
0-
0$
1/
00
13
1+
0,
#580000
0!
0<
15
#585000
1!
1<
05
1S
0Q
1K
1?
1T
0R
1L
1B
0@
0>
1.
0/
12
1,
#590000
0!
0<
15
#595000
1!
1<
05
1U
0S
1M
1C
0A
0?
0T
1N
1>
1-
1$
0.
11
1*
0+
0,
#600000
0!
0<
15
#605000
1!
1<
05
0U
1O
1?
1P
1@
0>
0-
0$
10
1,
#610000
0!
0<
15
#615000
1!
1<
05
1Q
1A
0?
1R
1>
1/
1+
0,
#620000
0!
0<
15
#625000
1!
1<
05
1S
1?
1T
1D
0B
0@
0>
1.
1,
0T
0P
0N
0J
0H
0F
#630000
0!
0<
15
#635000
1!
1<
05
0Q
0O
0K
0I
0G
1E
0C
0A
0?
0D
1>
0/
00
02
03
04
1)
0*
0+
0,
0E
1T
0R
1N
0L
1F
0)
#640000
0!
0<
15
#645000
1!
1<
05
1U
0S
1O
0M
1G
1?
0T
1P
0N
1H
1@
0>
1-
1$
0.
10
01
14
1,
#650000
0!
0<
15
#655000
1!
1<
05
0U
1Q
0O
1I
1A
0?
1R
0P
1J
1>
0-
0$
1/
00
13
1+
0,
#660000
0!
0<
15
#665000
1!
1<
05
1S
0Q
1K
1?
1T
0R
1L
1B
0@
0>
1.
0/
12
1,
#670000
0!
0<
15
#675000
1!
1<
05
1U
0S
1M
1C
0A
0?
0T
1N
1>
1-
1$
0.
11
1*
0+
0,
#680000
0!
0<
15
#685000
1!
1<
05
0U
1O
1?
1P
1@
0>
0-
0$
10
1,
#690000
0!
0<
15
#695000
1!
1<
05
1Q
1A
0?
1R
1>
1/
1+
0,
#700000
0!
0<
15
#705000
1!
1<
05
1S
1?
1T
1D
0B
0@
0>
1.
1,
0T
0P
0N
0J
0H
0F
#710000
0!
0<
15
#715000
1!
1<
05
0Q
0O
0K
0I
0G
1E
0C
0A
0?
0D
1>
0/
00
02
03
04
1)
0*
0+
0,
0E
1T
0R
1N
0L
1F
0)
#720000
0!
0<
15
#725000
1!
1<
05
1U
0S
1O
0M
1G
1?
0T
1P
0N
1H
1@
0>
1-
1$
0.
10
01
14
1,
#730000
0!
0<
15
#735000
1!
1<
05
0U
1Q
0O
1I
1A
0?
1R
0P
1J
1>
0-
0$
1/
00
13
1+
0,
#740000
0!
0<
15
#745000
1!
1<
05
1S
0Q
1K
1?
1T
0R
1L
1B
0@
0>
1.
0/
12
1,
#750000
0!
0<
15
#755000
1!
1<
05
1U
0S
1M
1C
0A
0?
0T
1N
1>
1-
1$
0.
11
1*
0+
0,
#760000
0!
0<
15
#765000
1!
1<
05
0U
1O
1?
1P
1@
0>
0-
0$
10
1,
#770000
0!
0<
15
#775000
1!
1<
05
1Q
1A
0?
1R
1>
1/
1+
0,
#780000
0!
0<
15
#785000
1!
1<
05
1S
1?
1T
1D
0B
0@
0>
1.
1,
0T
0P
0N
0J
0H
0F
#790000
0!
0<
15
#795000
1!
1<
05
0Q
0O
0K
0I
0G
1E
0C
0A
0?
0D
1>
0/
00
02
03
04
1)
0*
0+
0,
0E
1T
0R
1N
0L
1F
0)
#800000
0!
0<
15
#805000
1!
1<
05
1U
0S
1O
0M
1G
1?
0T
1P
0N
1H
1@
0>
1-
1$
0.
10
01
14
1,
#810000
0!
0<
15
#815000
1!
1<
05
0U
1Q
0O
1I
1A
0?
1R
0P
1J
1>
0-
0$
1/
00
13
1+
0,
#820000
0!
0<
15
#825000
1!
1<
05
1S
0Q
1K
1?
1T
0R
1L
1B
0@
0>
1.
0/
12
1,
#830000
0!
0<
15
#835000
1!
1<
05
1U
0S
1M
1C
0A
0?
0T
1N
1>
1-
1$
0.
11
1*
0+
0,
#840000
0!
0<
15
#845000
1!
1<
05
0U
1O
1?
1P
1@
0>
0-
0$
10
1,
#850000
0!
0<
15
#855000
1!
1<
05
1Q
1A
0?
1R
1>
1/
1+
0,
#860000
0!
0<
15
#865000
1!
1<
05
1S
1?
1T
1D
0B
0@
0>
1.
1,
0T
0P
0N
0J
0H
0F
#870000
0!
0<
15
#875000
1!
1<
05
0Q
0O
0K
0I
0G
1E
0C
0A
0?
0D
1>
0/
00
02
03
04
1)
0*
0+
0,
0E
1T
0R
1N
0L
1F
0)
#880000
0!
0<
15
#885000
1!
1<
05
1U
0S
1O
0M
1G
1?
0T
1P
0N
1H
1@
0>
1-
1$
0.
10
01
14
1,
#890000
0!
0<
15
#895000
1!
1<
05
0U
1Q
0O
1I
1A
0?
1R
0P
1J
1>
0-
0$
1/
00
13
1+
0,
#900000
0!
0<
15
#905000
1!
1<
05
1S
0Q
1K
1?
1T
0R
1L
1B
0@
0>
1.
0/
12
1,
#910000
0!
0<
15
#915000
1!
1<
05
1U
0S
1M
1C
0A
0?
0T
1N
1>
1-
1$
0.
11
1*
0+
0,
#920000
0!
0<
15
#925000
1!
1<
05
0U
1O
1?
1P
1@
0>
0-
0$
10
1,
#930000
0!
0<
15
#935000
1!
1<
05
1Q
1A
0?
1R
1>
1/
1+
0,
#940000
0!
0<
15
#945000
1!
1<
05
1S
1?
1T
1D
0B
0@
0>
1.
1,
0T
0P
0N
0J
0H
0F
#950000
0!
0<
15
#955000
1!
1<
05
0Q
0O
0K
0I
0G
1E
0C
0A
0?
0D
1>
0/
00
02
03
04
1)
0*
0+
0,
0E
1T
0R
1N
0L
1F
0)
#960000
0!
0<
15
#965000
1!
1<
05
1U
0S
1O
0M
1G
1?
0T
1P
0N
1H
1@
0>
1-
1$
0.
10
01
14
1,
#970000
0!
0<
15
#975000
1!
1<
05
0U
1Q
0O
1I
1A
0?
1R
0P
1J
1>
0-
0$
1/
00
13
1+
0,
#980000
0!
0<
15
#985000
1!
1<
05
1S
0Q
1K
1?
1T
0R
1L
1B
0@
0>
1.
0/
12
1,
#990000
0!
0<
15
#995000
1!
1<
05
1U
0S
1M
1C
0A
0?
0T
1N
1>
1-
1$
0.
11
1*
0+
0,
