TESTES/simulation/qsim/teste.msim.vcd
$comment
	File created using the following command:
		vcd file teste.msim.vcd -direction
$end
$date
	Tue Mar 13 13:57:52 2018
$end
$version
	ModelSim Version 10.1d
$end
$timescale
	1ps
$end
$scope module contador16bits_vlg_vec_tst $end
$var reg 1 ! clk $end
$var reg 1 " clr $end
$var reg 1 # desce $end
$var reg 1 $ ld $end
$var reg 1 % sobe $end
$var wire 1 & saida [15] $end
$var wire 1 ' saida [14] $end
$var wire 1 ( saida [13] $end
$var wire 1 ) saida [12] $end
$var wire 1 * saida [11] $end
$var wire 1 + saida [10] $end
$var wire 1 , saida [9] $end
$var wire 1 - saida [8] $end
$var wire 1 . saida [7] $end
$var wire 1 / saida [6] $end
$var wire 1 0 saida [5] $end
$var wire 1 1 saida [4] $end
$var wire 1 2 saida [3] $end
$var wire 1 3 saida [2] $end
$var wire 1 4 saida [1] $end
$var wire 1 5 saida [0] $end
$var wire 1 6 sampler $end
$scope module i1 $end
$var wire 1 7 gnd $end
$var wire 1 8 vcc $end
$var wire 1 9 unknown $end
$var tri1 1 : devclrn $end
$var tri1 1 ; devpor $end
$var tri1 1 < devoe $end
$var wire 1 = inc_dec[1]~0_combout $end
$var wire 1 > clk~combout $end
$var wire 1 ? desce~combout $end
$var wire 1 @ ld~combout $end
$var wire 1 A reg|FFD0|qS~0_combout $end
$var wire 1 B clr~combout $end
$var wire 1 C reg|FFD0|qS~regout $end
$var wire 1 D sobe~combout $end
$var wire 1 E somador|H1|s~0_combout $end
$var wire 1 F reg|FFD1|qS~2_cout $end
$var wire 1 G reg|FFD1|qS~3_combout $end
$var wire 1 H reg|FFD1|qS~regout $end
$var wire 1 I reg|FFD1|qS~4 $end
$var wire 1 J reg|FFD2|qS~1_combout $end
$var wire 1 K reg|FFD2|qS~regout $end
$var wire 1 L reg|FFD2|qS~2 $end
$var wire 1 M reg|FFD3|qS~1_combout $end
$var wire 1 N reg|FFD3|qS~regout $end
$var wire 1 O reg|FFD3|qS~2 $end
$var wire 1 P reg|FFD4|qS~1_combout $end
$var wire 1 Q reg|FFD4|qS~regout $end
$var wire 1 R reg|FFD4|qS~2 $end
$var wire 1 S reg|FFD5|qS~1_combout $end
$var wire 1 T reg|FFD5|qS~regout $end
$var wire 1 U reg|FFD5|qS~2 $end
$var wire 1 V reg|FFD6|qS~1_combout $end
$var wire 1 W reg|FFD6|qS~regout $end
$var wire 1 X reg|FFD6|qS~2 $end
$var wire 1 Y reg|FFD7|qS~1_combout $end
$var wire 1 Z reg|FFD7|qS~regout $end
$var wire 1 [ reg|FFD7|qS~2 $end
$var wire 1 \ reg|FFD8|qS~1_combout $end
$var wire 1 ] reg|FFD8|qS~regout $end
$var wire 1 ^ reg|FFD8|qS~2 $end
$var wire 1 _ reg|FFD9|qS~1_combout $end
$var wire 1 ` reg|FFD9|qS~regout $end
$var wire 1 a reg|FFD9|qS~2 $end
$var wire 1 b reg|FFD10|qS~1_combout $end
$var wire 1 c reg|FFD10|qS~regout $end
$var wire 1 d reg|FFD10|qS~2 $end
$var wire 1 e reg|FFD11|qS~1_combout $end
$var wire 1 f reg|FFD11|qS~regout $end
$var wire 1 g reg|FFD11|qS~2 $end
$var wire 1 h reg|FFD12|qS~1_combout $end
$var wire 1 i reg|FFD12|qS~regout $end
$var wire 1 j reg|FFD12|qS~2 $end
$var wire 1 k reg|FFD13|qS~1_combout $end
$var wire 1 l reg|FFD13|qS~regout $end
$var wire 1 m reg|FFD13|qS~2 $end
$var wire 1 n reg|FFD14|qS~1_combout $end
$var wire 1 o reg|FFD14|qS~regout $end
$var wire 1 p reg|FFD14|qS~2 $end
$var wire 1 q reg|FFD15|qS~1_combout $end
$var wire 1 r reg|FFD15|qS~regout $end
$upscope $end
$upscope $end
$enddefinitions $end
#0
$dumpvars
0!
0"
0#
0$
1%
05
04
03
02
01
00
0/
0.
0-
0,
0+
0*
0)
0(
0'
0&
x6
07
18
x9
1:
1;
1<
0=
0>
0?
0@
0A
0B
0C
1D
0E
0F
0G
0H
1I
0J
0K
0L
0M
0N
1O
0P
0Q
0R
0S
0T
1U
0V
0W
0X
0Y
0Z
1[
0\
0]
0^
0_
0`
1a
0b
0c
0d
0e
0f
1g
0h
0i
0j
0k
0l
1m
0n
0o
0p
0q
0r
$end
#5000
1!
1>
06
#10000
0!
0>
16
#15000
1!
1>
06
#20000
0!
0>
16
#25000
1$
1!
1@
1>
06
1A
#30000
0!
0>
16
#35000
1!
1>
06
1C
1E
0A
15
1G
#40000
0!
0>
16
#45000
1!
1>
06
1H
0C
1F
0E
1A
14
05
#50000
0$
0!
0@
0>
16
0A
#55000
1!
1>
06
#60000
0!
0>
16
#65000
1!
1>
06
#70000
0!
0>
16
#75000
1$
1!
1@
1>
06
1A
#80000
0!
0>
16
#85000
1!
1>
06
1C
1E
0A
15
0I
0G
1J
#90000
0!
0>
16
#95000
1!
1>
06
1K
0H
0C
1L
0J
0F
0E
1A
13
04
05
1M
1I
0L
1J
0M
#100000
0$
0!
0@
0>
16
0A
#105000
1!
1>
06
#110000
0!
0>
16
#115000
1!
1>
06
#120000
0!
0>
16
#125000
1$
1!
1@
1>
06
1A
#130000
0!
0>
16
#135000
1!
1>
06
1C
1E
0A
15
1G
#140000
0!
0>
16
#145000
1!
1>
06
1H
0C
1F
0E
1A
14
05
#150000
0$
0!
0@
0>
16
0A
#155000
1!
1>
06
#160000
0!
0>
16
#165000
1!
1>
06
#170000
0!
0>
16
#175000
1$
1!
1@
1>
06
1A
#180000
0!
0>
16
#185000
1!
1>
06
1C
1E
0A
15
0I
0G
1L
0J
1M
#190000
0!
0>
16
#195000
1!
1>
06
1N
0K
0H
0C
0O
0M
0L
1J
0F
0E
1A
12
03
04
05
1P
1O
1M
1I
0P
0J
#200000
0$
0!
0@
0>
16
0A
#205000
1!
1>
06
#210000
0!
0>
16
#215000
1!
1>
06
#220000
0!
0>
16
#225000
1$
1!
1@
1>
06
1A
#230000
0!
0>
16
#235000
1!
1>
06
1C
1E
0A
15
1G
#240000
0!
0>
16
#245000
1!
1>
06
1H
0C
1F
0E
1A
14
05
#250000
0$
0!
0@
0>
16
0A
#255000
1!
1>
06
#260000
0!
0>
16
#265000
1!
1>
06
#270000
0!
0>
16
#275000
1$
1!
1@
1>
06
1A
#280000
0!
0>
16
#285000
1!
1>
06
1C
1E
0A
15
0I
0G
1J
#290000
0!
0>
16
#295000
1!
1>
06
1K
0H
0C
1L
0J
0F
0E
1A
13
04
05
0O
0M
1I
1P
0L
1J
1O
1M
0P
#300000
0$
0!
0@
0>
16
0A
#305000
1!
1>
06
#310000
0!
0>
16
#315000
1!
1>
06
#320000
0!
0>
16
#325000
1$
1!
1@
1>
06
1A
#330000
0!
0>
16
#335000
1!
1>
06
1C
1E
0A
15
1G
#340000
0!
0>
16
#345000
1!
1>
06
1H
0C
1F
0E
1A
14
05
#350000
0$
0!
0@
0>
16
0A
#355000
1!
1>
06
#360000
0!
0>
16
#365000
1!
1>
06
#370000
0!
0>
16
#375000
1$
1!
1@
1>
06
1A
#380000
0!
0>
16
#385000
1!
1>
06
1C
1E
0A
15
0I
0G
1L
0J
0O
0M
1P
#390000
0!
0>
16
#395000
1!
1>
06
1Q
0N
0K
0H
0C
1R
0P
1O
1M
0L
1J
0F
0E
1A
11
02
03
04
05
1S
0R
1P
0M
1I
0S
0J
#400000
0$
0!
0@
0>
16
0A
#405000
1!
1>
06
#410000
0!
0>
16
#415000
1!
1>
06
#420000
0!
0>
16
#425000
1$
1!
1@
1>
06
1A
#430000
0!
0>
16
#435000
1!
1>
06
1C
1E
0A
15
1G
#440000
0!
0>
16
#445000
1!
1>
06
1H
0C
1F
0E
1A
14
05
#450000
0$
0!
0@
0>
16
0A
#455000
1!
1>
06
#460000
0!
0>
16
#465000
1!
1>
06
#470000
0!
0>
16
#475000
1$
1!
1@
1>
06
1A
#480000
0!
0>
16
#485000
1!
1>
06
1C
1E
0A
15
0I
0G
1J
#490000
0!
0>
16
#495000
1!
1>
06
1K
0H
0C
1L
0J
0F
0E
1A
13
04
05
1M
1I
0L
1J
0M
#500000
0$
0!
0@
0>
16
0A
#505000
1!
1>
06
#510000
0!
0>
16
#515000
1!
1>
06
#520000
0!
0>
16
#525000
1$
1!
1@
1>
06
1A
#530000
0!
0>
16
#535000
1!
1>
06
1C
1E
0A
15
1G
#540000
0!
0>
16
#545000
1!
1>
06
1H
0C
1F
0E
1A
14
05
#550000
0$
0!
0@
0>
16
0A
#555000
1!
1>
06
#560000
0!
0>
16
#565000
1!
1>
06
#570000
0!
0>
16
#575000
1$
1!
1@
1>
06
1A
#580000
0!
0>
16
#585000
1!
1>
06
1C
1E
0A
15
0I
0G
1L
0J
1M
#590000
0!
0>
16
#595000
1!
1>
06
1N
0K
0H
0C
0O
0M
0L
1J
0F
0E
1A
12
03
04
05
1R
0P
1O
1M
1I
1S
0R
1P
0J
0S
#600000
0$
0!
0@
0>
16
0A
#605000
1!
1>
06
#610000
0!
0>
16
#615000
1!
1>
06
#620000
0!
0>
16
#625000
1$
1!
1@
1>
06
1A
#630000
0!
0>
16
#635000
1!
1>
06
1C
1E
0A
15
1G
#640000
0!
0>
16
#645000
1!
1>
06
1H
0C
1F
0E
1A
14
05
#650000
0$
0!
0@
0>
16
0A
#655000
1!
1>
06
#660000
0!
0>
16
#665000
1!
1>
06
#670000
0!
0>
16
#675000
1$
1!
1@
1>
06
1A
#680000
0!
0>
16
#685000
1!
1>
06
1C
1E
0A
15
0I
0G
1J
#690000
0!
0>
16
#695000
1!
1>
06
1K
0H
0C
1L
0J
0F
0E
1A
13
04
05
0O
0M
1I
1R
0P
0L
1J
1S
1O
1M
0R
1P
0S
#700000
0$
0!
0@
0>
16
0A
#705000
1!
1>
06
#710000
0!
0>
16
#715000
1!
1>
06
#720000
0!
0>
16
#725000
1$
1!
1@
1>
06
1A
#730000
0!
0>
16
#735000
1!
1>
06
1C
1E
0A
15
1G
#740000
0!
0>
16
#745000
1!
1>
06
1H
0C
1F
0E
1A
14
05
#750000
0$
0!
0@
0>
16
0A
#755000
1!
1>
06
#760000
0!
0>
16
#765000
1!
1>
06
#770000
0!
0>
16
#775000
1$
1!
1@
1>
06
1A
#780000
0!
0>
16
#785000
1!
1>
06
1C
1E
0A
15
0I
0G
1L
0J
0O
0M
1R
0P
1S
#790000
0!
0>
16
#795000
1!
1>
06
1T
0Q
0N
0K
0H
0C
0U
0S
0R
1P
1O
1M
0L
1J
0F
0E
1A
10
01
02
03
04
05
1V
1U
1S
0P
0M
1I
0V
0J
#800000
0$
0!
0@
0>
16
0A
#805000
1!
1>
06
#810000
0!
0>
16
#815000
1!
1>
06
#820000
0!
0>
16
#825000
1$
1!
1@
1>
06
1A
#830000
0!
0>
16
#835000
1!
1>
06
1C
1E
0A
15
1G
#840000
0!
0>
16
#845000
1!
1>
06
1H
0C
1F
0E
1A
14
05
#850000
0$
0!
0@
0>
16
0A
#855000
1!
1>
06
#860000
0!
0>
16
#865000
1!
1>
06
#870000
0!
0>
16
#875000
1$
1!
1@
1>
06
1A
#880000
0!
0>
16
#885000
1!
1>
06
1C
1E
0A
15
0I
0G
1J
#890000
0!
0>
16
#895000
1!
1>
06
1K
0H
0C
1L
0J
0F
0E
1A
13
04
05
1M
1I
0L
1J
0M
#900000
0$
0!
0@
0>
16
0A
#905000
1!
1>
06
#910000
0!
0>
16
#915000
1!
1>
06
#920000
0!
0>
16
#925000
1$
1!
1@
1>
06
1A
#930000
0!
0>
16
#935000
1!
1>
06
1C
1E
0A
15
1G
#940000
0!
0>
16
#945000
1!
1>
06
1H
0C
1F
0E
1A
14
05
#950000
0$
0!
0@
0>
16
0A
#955000
1!
1>
06
#960000
0!
0>
16
#965000
1!
1>
06
#970000
0!
0>
16
#975000
1$
1!
1@
1>
06
1A
#980000
0!
0>
16
#985000
1!
1>
06
1C
1E
0A
15
0I
0G
1L
0J
1M
#990000
0!
0>
16
#995000
1!
1>
06
1N
0K
0H
0C
0O
0M
0L
1J
0F
0E
1A
12
03
04
05
1P
1O
1M
1I
0P
0J
