LAB01/simulation/qsim/lab01.msim.vcd
$comment
	File created using the following command:
		vcd file lab01.msim.vcd -direction
$end
$date
	Thu Feb 22 22:39:45 2018
$end
$version
	ModelSim Version 10.1d
$end
$timescale
	1ps
$end
$scope module lab01_vlg_vec_tst $end
$var reg 4 ! buttons [3:0] $end
$var reg 1 " clk_27 $end
$var reg 1 # r0 $end
$var reg 1 $ sw $end
$var wire 1 % display7 [6] $end
$var wire 1 & display7 [5] $end
$var wire 1 ' display7 [4] $end
$var wire 1 ( display7 [3] $end
$var wire 1 ) display7 [2] $end
$var wire 1 * display7 [1] $end
$var wire 1 + display7 [0] $end
$var wire 1 , ledr $end
$var wire 1 - sampler $end
$scope module i1 $end
$var wire 1 . gnd $end
$var wire 1 / vcc $end
$var wire 1 0 unknown $end
$var tri1 1 1 devclrn $end
$var tri1 1 2 devpor $end
$var tri1 1 3 devoe $end
$var wire 1 4 MDE0|y_present.b4~regout $end
$var wire 1 5 MDE0|Selector1~0_combout $end
$var wire 1 6 MDE0|Selector4~0_combout $end
$var wire 1 7 MDE0|Selector0~4_combout $end
$var wire 1 8 clk_27~combout $end
$var wire 1 9 clk_27~clkctrl_outclk $end
$var wire 1 : CLK|cnt~0_combout $end
$var wire 1 ; CLK|cnt~2_combout $end
$var wire 1 < CLK|cnt[2]~3_combout $end
$var wire 1 = CLK|cnt~1_combout $end
$var wire 1 > CLK|Equal0~0_combout $end
$var wire 1 ? CLK|ax~0_combout $end
$var wire 1 @ CLK|ax~regout $end
$var wire 1 A CLK|ax~clkctrl_outclk $end
$var wire 1 B SB2|y_present.a~0_combout $end
$var wire 1 C r0~combout $end
$var wire 1 D r0~clkctrl_outclk $end
$var wire 1 E SB2|y_present.a~regout $end
$var wire 1 F SB2|y_next.b~0_combout $end
$var wire 1 G SB2|y_present.b~regout $end
$var wire 1 H SB3|y_present.a~0_combout $end
$var wire 1 I SB3|y_present.a~regout $end
$var wire 1 J SB3|y_next.b~0_combout $end
$var wire 1 K SB3|y_present.b~regout $end
$var wire 1 L SB0|y_present.a~0_combout $end
$var wire 1 M SB0|y_present.a~regout $end
$var wire 1 N SB0|y_next.b~0_combout $end
$var wire 1 O SB0|y_present.b~regout $end
$var wire 1 P MDE0|Equal3~0_combout $end
$var wire 1 Q MDE0|Selector3~0_combout $end
$var wire 1 R MDE0|Selector5~0_combout $end
$var wire 1 S MDE0|y_present.b5~regout $end
$var wire 1 T SB1|y_present.a~0_combout $end
$var wire 1 U SB1|y_present.a~regout $end
$var wire 1 V SB1|y_next.b~0_combout $end
$var wire 1 W SB1|y_present.b~regout $end
$var wire 1 X MDE0|Selector6~0_combout $end
$var wire 1 Y MDE0|Selector6~1_combout $end
$var wire 1 Z MDE0|y_present.acertou~regout $end
$var wire 1 [ MDE0|Equal4~0_combout $end
$var wire 1 \ MDE0|Selector0~3_combout $end
$var wire 1 ] sw~combout $end
$var wire 1 ^ MDE0|Selector0~0_combout $end
$var wire 1 _ MDE0|Selector0~1_combout $end
$var wire 1 ` MDE0|Selector0~2_combout $end
$var wire 1 a MDE0|Selector0~5_combout $end
$var wire 1 b MDE0|y_present.espera~regout $end
$var wire 1 c MDE0|Selector1~1_combout $end
$var wire 1 d MDE0|y_present.b1~regout $end
$var wire 1 e MDE0|Selector2~0_combout $end
$var wire 1 f MDE0|y_present.b2~regout $end
$var wire 1 g MDE0|y_present.b3~0_combout $end
$var wire 1 h MDE0|y_present.b3~1_combout $end
$var wire 1 i MDE0|y_present.b3~regout $end
$var wire 1 j MDE0|WideOr7~0_combout $end
$var wire 1 k MDE0|WideOr6~0_combout $end
$var wire 1 l MDE0|WideOr8~combout $end
$var wire 1 m DISP|outt[0]~0_combout $end
$var wire 1 n DISP|outt[1]~1_combout $end
$var wire 1 o DISP|Equal9~0_combout $end
$var wire 1 p DISP|outt[4]~2_combout $end
$var wire 1 q DISP|outt[5]~3_combout $end
$var wire 1 r DISP|outt[6]~4_combout $end
$var wire 1 s CLK|cnt [3] $end
$var wire 1 t CLK|cnt [2] $end
$var wire 1 u CLK|cnt [1] $end
$var wire 1 v CLK|cnt [0] $end
$var wire 1 w buttons~combout [3] $end
$var wire 1 x buttons~combout [2] $end
$var wire 1 y buttons~combout [1] $end
$var wire 1 z buttons~combout [0] $end
$upscope $end
$upscope $end
$enddefinitions $end
#0
$dumpvars
b0 !
0"
0#
0$
0+
0*
0)
0(
0'
0&
1%
0,
x-
0.
1/
x0
11
12
13
04
05
06
07
08
09
0:
1;
0<
0=
0>
0?
0@
0A
1B
0C
0D
0E
1F
0G
1H
0I
1J
0K
1L
0M
1N
0O
0P
0Q
0R
0S
1T
0U
1V
0W
0X
0Y
0Z
1[
0\
0]
0^
1_
1`
0a
0b
0c
0d
0e
0f
0g
0h
0i
0j
0k
0l
0m
0n
0o
0p
1q
0r
0v
0u
0t
0s
0z
0y
0x
0w
$end
#500
1"
18
19
0-
1v
0;
1:
#1000
0"
08
09
1-
#1500
1"
18
19
0-
0v
1u
1;
#2000
0"
08
09
1-
#2500
1"
18
19
0-
1v
1<
0;
0:
#3000
0"
08
09
1-
#3500
1"
18
19
0-
1t
0v
0u
1;
#4000
0"
08
09
1-
#4500
1"
18
19
0-
1v
0;
1:
#5000
0"
08
09
1-
#5500
1"
18
19
0-
0v
1u
1;
#6000
0"
08
09
1-
#6500
1"
18
19
0-
1v
1=
0<
0;
0:
#7000
0"
08
09
1-
#7500
1"
18
19
0-
1s
0t
0v
0u
1;
#8000
0"
08
09
1-
#8500
1"
18
19
0-
1v
0;
1:
#9000
0"
08
09
1-
#9500
1"
18
19
0-
0v
1u
1>
0=
0:
1?
#10000
b1000 !
0"
1w
08
09
1-
0J
0H
#10500
1"
18
19
0-
1@
0s
0u
1A
0?
0>
1;
1?
1W
1U
1O
1M
1G
1E
1^
1Q
0V
0[
0N
0F
#11000
0"
08
09
1-
#11500
1"
18
19
0-
1v
0;
1:
#12000
0"
08
09
1-
#12500
1"
18
19
0-
0v
1u
1;
#13000
0"
08
09
1-
#13500
1"
18
19
0-
1v
1<
0;
0:
#14000
0"
08
09
1-
#14500
1"
18
19
0-
1t
0v
0u
1;
#15000
0"
08
09
1-
#15500
1"
18
19
0-
1v
0;
1:
#16000
0"
08
09
1-
#16500
1"
18
19
0-
0v
1u
1;
#17000
0"
08
09
1-
#17500
1"
18
19
0-
1v
1=
0<
0;
0:
#18000
0"
08
09
1-
#18500
1"
18
19
0-
1s
0t
0v
0u
1;
#19000
0"
08
09
1-
#19500
1"
18
19
0-
1v
0;
1:
#20000
0"
08
09
1-
#20500
1"
18
19
0-
0v
1u
1>
0=
0:
0?
#21000
0"
08
09
1-
#21500
1"
18
19
0-
0@
0s
0u
0A
1?
0>
1;
0?
#22000
0"
08
09
1-
#22500
1"
18
19
0-
1v
0;
1:
#23000
0"
08
09
1-
#23500
1"
18
19
0-
0v
1u
1;
#24000
0"
08
09
1-
#24500
1"
18
19
0-
1v
1<
0;
0:
#25000
0"
08
09
1-
#25500
1"
18
19
0-
1t
0v
0u
1;
#26000
0"
08
09
1-
#26500
1"
18
19
0-
1v
0;
1:
#27000
0"
08
09
1-
#27500
1"
18
19
0-
0v
1u
1;
#28000
0"
08
09
1-
#28500
1"
18
19
0-
1v
1=
0<
0;
0:
#29000
0"
08
09
1-
#29500
1"
18
19
0-
1s
0t
0v
0u
1;
#30000
0"
08
09
1-
#30500
1"
18
19
0-
1v
0;
1:
#31000
0"
08
09
1-
#31500
1"
18
19
0-
0v
1u
1>
0=
0:
1?
#32000
0"
08
09
1-
#32500
1"
18
19
0-
1@
0s
0u
1A
0?
0>
1;
1?
0W
0O
0G
0^
0Q
1[
#33000
0"
08
09
1-
#33500
1"
18
19
0-
1v
0;
1:
#34000
0"
08
09
1-
#34500
1"
18
19
0-
0v
1u
1;
#35000
0"
08
09
1-
#35500
1"
18
19
0-
1v
1<
0;
0:
#36000
0"
08
09
1-
#36500
1"
18
19
0-
1t
0v
0u
1;
#37000
0"
08
09
1-
#37500
1"
18
19
0-
1v
0;
1:
#38000
0"
08
09
1-
#38500
1"
18
19
0-
0v
1u
1;
#39000
0"
08
09
1-
#39500
1"
18
19
0-
1v
1=
0<
0;
0:
#40000
0"
08
09
1-
#40500
1"
18
19
0-
1s
0t
0v
0u
1;
#41000
0"
08
09
1-
#41500
1"
18
19
0-
1v
0;
1:
#42000
0"
08
09
1-
#42500
1"
18
19
0-
0v
1u
1>
0=
0:
0?
#43000
0"
08
09
1-
#43500
1"
18
19
0-
0@
0s
0u
0A
1?
0>
1;
0?
#44000
0"
08
09
1-
#44500
1"
18
19
0-
1v
0;
1:
#45000
0"
08
09
1-
#45500
1"
18
19
0-
0v
1u
1;
#46000
0"
08
09
1-
#46500
1"
18
19
0-
1v
1<
0;
0:
#47000
0"
08
09
1-
#47500
1"
18
19
0-
1t
0v
0u
1;
#48000
0"
08
09
1-
#48500
1"
18
19
0-
1v
0;
1:
#49000
0"
08
09
1-
#49500
1"
18
19
0-
0v
1u
1;
#50000
0"
08
09
1-
#50500
1"
18
19
0-
1v
1=
0<
0;
0:
#51000
0"
08
09
1-
#51500
1"
18
19
0-
1s
0t
0v
0u
1;
#52000
0"
08
09
1-
#52500
1"
18
19
0-
1v
0;
1:
#53000
0"
08
09
1-
#53500
1"
18
19
0-
0v
1u
1>
0=
0:
1?
#54000
0"
08
09
1-
#54500
1"
18
19
0-
1@
0s
0u
1A
0?
0>
1;
1?
#55000
0"
08
09
1-
#55500
1"
18
19
0-
1v
0;
1:
#56000
0"
08
09
1-
#56500
1"
18
19
0-
0v
1u
1;
#57000
0"
08
09
1-
#57500
1"
18
19
0-
1v
1<
0;
0:
#58000
0"
08
09
1-
#58500
1"
18
19
0-
1t
0v
0u
1;
#59000
0"
08
09
1-
#59500
1"
18
19
0-
1v
0;
1:
#60000
b0 !
0"
0w
08
09
1-
1J
1H
#60500
1"
18
19
0-
0v
1u
1;
#61000
0"
08
09
1-
#61500
1"
18
19
0-
1v
1=
0<
0;
0:
#62000
0"
08
09
1-
#62500
1"
18
19
0-
1s
0t
0v
0u
1;
#63000
0"
08
09
1-
#63500
1"
18
19
0-
1v
0;
1:
#64000
0"
08
09
1-
#64500
1"
18
19
0-
0v
1u
1>
0=
0:
0?
#65000
0"
08
09
1-
#65500
1"
18
19
0-
0@
0s
0u
0A
1?
0>
1;
0?
#66000
0"
08
09
1-
#66500
1"
18
19
0-
1v
0;
1:
#67000
0"
08
09
1-
#67500
1"
18
19
0-
0v
1u
1;
#68000
0"
08
09
1-
#68500
1"
18
19
0-
1v
1<
0;
0:
#69000
0"
08
09
1-
#69500
1"
18
19
0-
1t
0v
0u
1;
#70000
0"
08
09
1-
#70500
1"
18
19
0-
1v
0;
1:
#71000
0"
08
09
1-
#71500
1"
18
19
0-
0v
1u
1;
#72000
0"
08
09
1-
#72500
1"
18
19
0-
1v
1=
0<
0;
0:
#73000
0"
08
09
1-
#73500
1"
18
19
0-
1s
0t
0v
0u
1;
#74000
0"
08
09
1-
#74500
1"
18
19
0-
1v
0;
1:
#75000
0"
08
09
1-
#75500
1"
18
19
0-
0v
1u
1>
0=
0:
1?
#76000
0"
08
09
1-
#76500
1"
18
19
0-
1@
0s
0u
1A
0?
0>
1;
1?
1K
1I
0_
0[
1Q
15
0J
0`
1c
1a
#77000
0"
08
09
1-
#77500
1"
18
19
0-
1v
0;
1:
#78000
0"
08
09
1-
#78500
1"
18
19
0-
0v
1u
1;
#79000
0"
08
09
1-
#79500
1"
18
19
0-
1v
1<
0;
0:
#80000
0"
08
09
1-
#80500
1"
18
19
0-
1t
0v
0u
1;
#81000
0"
08
09
1-
#81500
1"
18
19
0-
1v
0;
1:
#82000
0"
08
09
1-
#82500
1"
18
19
0-
0v
1u
1;
#83000
0"
08
09
1-
#83500
1"
18
19
0-
1v
1=
0<
0;
0:
#84000
0"
08
09
1-
#84500
1"
18
19
0-
1s
0t
0v
0u
1;
#85000
0"
08
09
1-
#85500
1"
18
19
0-
1v
0;
1:
#86000
0"
08
09
1-
#86500
1"
18
19
0-
0v
1u
1>
0=
0:
0?
#87000
0"
08
09
1-
#87500
1"
18
19
0-
0@
0s
0u
0A
1?
0>
1;
0?
#88000
0"
08
09
1-
#88500
1"
18
19
0-
1v
0;
1:
#89000
0"
08
09
1-
#89500
1"
18
19
0-
0v
1u
1;
#90000
0"
08
09
1-
#90500
1"
18
19
0-
1v
1<
0;
0:
#91000
0"
08
09
1-
#91500
1"
18
19
0-
1t
0v
0u
1;
#92000
0"
08
09
1-
#92500
1"
18
19
0-
1v
0;
1:
#93000
0"
08
09
1-
#93500
1"
18
19
0-
0v
1u
1;
#94000
0"
08
09
1-
#94500
1"
18
19
0-
1v
1=
0<
0;
0:
#95000
0"
08
09
1-
#95500
1"
18
19
0-
1s
0t
0v
0u
1;
#96000
0"
08
09
1-
#96500
1"
18
19
0-
1v
0;
1:
#97000
0"
08
09
1-
#97500
1"
18
19
0-
0v
1u
1>
0=
0:
1?
#98000
0"
08
09
1-
#98500
1"
18
19
0-
1@
0s
0u
1A
0?
0>
1;
1?
1d
1b
0K
1l
0c
1\
1[
0Q
05
0q
1p
1m
1c
1'
1(
1+
1&
#99000
0"
08
09
1-
#99500
1"
18
19
0-
1v
0;
1:
#100000
b10 !
0"
1y
08
09
1-
0T
#100500
1"
18
19
0-
0v
1u
1;
#101000
0"
08
09
1-
#101500
1"
18
19
0-
1v
1<
0;
0:
#102000
0"
08
09
1-
#102500
1"
18
19
0-
1t
0v
0u
1;
#103000
0"
08
09
1-
#103500
1"
18
19
0-
1v
0;
1:
#104000
0"
08
09
1-
#104500
1"
18
19
0-
0v
1u
1;
#105000
0"
08
09
1-
#105500
1"
18
19
0-
1v
1=
0<
0;
0:
#106000
0"
08
09
1-
#106500
1"
18
19
0-
1s
0t
0v
0u
1;
#107000
0"
08
09
1-
#107500
1"
18
19
0-
1v
0;
1:
#108000
0"
08
09
1-
#108500
1"
18
19
0-
0v
1u
1>
0=
0:
0?
#109000
0"
08
09
1-
#109500
1"
18
19
0-
0@
0s
0u
0A
1?
0>
1;
0?
#110000
0"
08
09
1-
#110500
1"
18
19
0-
1v
0;
1:
#111000
0"
08
09
1-
#111500
1"
18
19
0-
0v
1u
1;
#112000
0"
08
09
1-
#112500
1"
18
19
0-
1v
1<
0;
0:
#113000
0"
08
09
1-
#113500
1"
18
19
0-
1t
0v
0u
1;
#114000
0"
08
09
1-
#114500
1"
18
19
0-
1v
0;
1:
#115000
0"
08
09
1-
#115500
1"
18
19
0-
0v
1u
1;
#116000
0"
08
09
1-
#116500
1"
18
19
0-
1v
1=
0<
0;
0:
#117000
0"
08
09
1-
#117500
1"
18
19
0-
1s
0t
0v
0u
1;
#118000
0"
08
09
1-
#118500
1"
18
19
0-
1v
0;
1:
#119000
0"
08
09
1-
#119500
1"
18
19
0-
0v
1u
1>
0=
0:
1?
#120000
0"
08
09
1-
#120500
1"
18
19
0-
1@
0s
0u
1A
0?
0>
1;
1?
0U
#121000
0"
08
09
1-
#121500
1"
18
19
0-
1v
0;
1:
#122000
0"
08
09
1-
#122500
1"
18
19
0-
0v
1u
1;
#123000
0"
08
09
1-
#123500
1"
18
19
0-
1v
1<
0;
0:
#124000
0"
08
09
1-
#124500
1"
18
19
0-
1t
0v
0u
1;
#125000
0"
08
09
1-
#125500
1"
18
19
0-
1v
0;
1:
#126000
0"
08
09
1-
#126500
1"
18
19
0-
0v
1u
1;
#127000
0"
08
09
1-
#127500
1"
18
19
0-
1v
1=
0<
0;
0:
#128000
0"
08
09
1-
#128500
1"
18
19
0-
1s
0t
0v
0u
1;
#129000
0"
08
09
1-
#129500
1"
18
19
0-
1v
0;
1:
#130000
0"
08
09
1-
#130500
1"
18
19
0-
0v
1u
1>
0=
0:
0?
#131000
0"
08
09
1-
#131500
1"
18
19
0-
0@
0s
0u
0A
1?
0>
1;
0?
#132000
0"
08
09
1-
#132500
1"
18
19
0-
1v
0;
1:
#133000
0"
08
09
1-
#133500
1"
18
19
0-
0v
1u
1;
#134000
0"
08
09
1-
#134500
1"
18
19
0-
1v
1<
0;
0:
#135000
0"
08
09
1-
#135500
1"
18
19
0-
1t
0v
0u
1;
#136000
0"
08
09
1-
#136500
1"
18
19
0-
1v
0;
1:
#137000
0"
08
09
1-
#137500
1"
18
19
0-
0v
1u
1;
#138000
0"
08
09
1-
#138500
1"
18
19
0-
1v
1=
0<
0;
0:
#139000
0"
08
09
1-
#139500
1"
18
19
0-
1s
0t
0v
0u
1;
#140000
b0 !
0"
0y
08
09
1-
1V
1T
#140500
1"
18
19
0-
1v
0;
1:
#141000
0"
08
09
1-
#141500
1"
18
19
0-
0v
1u
1>
0=
0:
1?
#142000
0"
08
09
1-
#142500
1"
18
19
0-
1@
0s
0u
1A
0?
0>
1;
1?
1W
1U
1e
0\
1Q
0V
0c
#143000
0"
08
09
1-
#143500
1"
18
19
0-
1v
0;
1:
#144000
0"
08
09
1-
#144500
1"
18
19
0-
0v
1u
1;
#145000
0"
08
09
1-
#145500
1"
18
19
0-
1v
1<
0;
0:
#146000
0"
08
09
1-
#146500
1"
18
19
0-
1t
0v
0u
1;
#147000
0"
08
09
1-
#147500
1"
18
19
0-
1v
0;
1:
#148000
0"
08
09
1-
#148500
1"
18
19
0-
0v
1u
1;
#149000
0"
08
09
1-
#149500
1"
18
19
0-
1v
1=
0<
0;
0:
#150000
0"
08
09
1-
#150500
1"
18
19
0-
1s
0t
0v
0u
1;
#151000
0"
08
09
1-
#151500
1"
18
19
0-
1v
0;
1:
#152000
0"
08
09
1-
#152500
1"
18
19
0-
0v
1u
1>
0=
0:
0?
#153000
0"
08
09
1-
#153500
1"
18
19
0-
0@
0s
0u
0A
1?
0>
1;
0?
#154000
0"
08
09
1-
#154500
1"
18
19
0-
1v
0;
1:
#155000
0"
08
09
1-
#155500
1"
18
19
0-
0v
1u
1;
#156000
0"
08
09
1-
#156500
1"
18
19
0-
1v
1<
0;
0:
#157000
0"
08
09
1-
#157500
1"
18
19
0-
1t
0v
0u
1;
#158000
0"
08
09
1-
#158500
1"
18
19
0-
1v
0;
1:
#159000
0"
08
09
1-
#159500
1"
18
19
0-
0v
1u
1;
#160000
0"
08
09
1-
#160500
1"
18
19
0-
1v
1=
0<
0;
0:
#161000
0"
08
09
1-
#161500
1"
18
19
0-
1s
0t
0v
0u
1;
#162000
0"
08
09
1-
#162500
1"
18
19
0-
1v
0;
1:
#163000
0"
08
09
1-
#163500
1"
18
19
0-
0v
1u
1>
0=
0:
1?
#164000
0"
08
09
1-
#164500
1"
18
19
0-
1@
0s
0u
1A
0?
0>
1;
1?
1f
0d
0W
1j
0l
0Q
1r
0p
1o
0m
0'
1)
0(
0+
0%
#165000
0"
08
09
1-
#165500
1"
18
19
0-
1v
0;
1:
#166000
0"
08
09
1-
#166500
1"
18
19
0-
0v
1u
1;
#167000
0"
08
09
1-
#167500
1"
18
19
0-
1v
1<
0;
0:
#168000
0"
08
09
1-
#168500
1"
18
19
0-
1t
0v
0u
1;
#169000
0"
08
09
1-
#169500
1"
18
19
0-
1v
0;
1:
#170000
b1 !
0"
1z
08
09
1-
0L
#170500
1"
18
19
0-
0v
1u
1;
#171000
0"
08
09
1-
#171500
1"
18
19
0-
1v
1=
0<
0;
0:
#172000
0"
08
09
1-
#172500
1"
18
19
0-
1s
0t
0v
0u
1;
#173000
0"
08
09
1-
#173500
1"
18
19
0-
1v
0;
1:
#174000
0"
08
09
1-
#174500
1"
18
19
0-
0v
1u
1>
0=
0:
0?
#175000
0"
08
09
1-
#175500
1"
18
19
0-
0@
0s
0u
0A
1?
0>
1;
0?
#176000
0"
08
09
1-
#176500
1"
18
19
0-
1v
0;
1:
#177000
0"
08
09
1-
#177500
1"
18
19
0-
0v
1u
1;
#178000
0"
08
09
1-
#178500
1"
18
19
0-
1v
1<
0;
0:
#179000
0"
08
09
1-
#179500
1"
18
19
0-
1t
0v
0u
1;
#180000
0"
08
09
1-
#180500
1"
18
19
0-
1v
0;
1:
#181000
0"
08
09
1-
#181500
1"
18
19
0-
0v
1u
1;
#182000
0"
08
09
1-
#182500
1"
18
19
0-
1v
1=
0<
0;
0:
#183000
0"
08
09
1-
#183500
1"
18
19
0-
1s
0t
0v
0u
1;
#184000
0"
08
09
1-
#184500
1"
18
19
0-
1v
0;
1:
#185000
0"
08
09
1-
#185500
1"
18
19
0-
0v
1u
1>
0=
0:
1?
#186000
0"
08
09
1-
#186500
1"
18
19
0-
1@
0s
0u
1A
0?
0>
1;
1?
0M
#187000
0"
08
09
1-
#187500
1"
18
19
0-
1v
0;
1:
#188000
0"
08
09
1-
#188500
1"
18
19
0-
0v
1u
1;
#189000
0"
08
09
1-
#189500
1"
18
19
0-
1v
1<
0;
0:
#190000
0"
08
09
1-
#190500
1"
18
19
0-
1t
0v
0u
1;
#191000
0"
08
09
1-
#191500
1"
18
19
0-
1v
0;
1:
#192000
0"
08
09
1-
#192500
1"
18
19
0-
0v
1u
1;
#193000
0"
08
09
1-
#193500
1"
18
19
0-
1v
1=
0<
0;
0:
#194000
0"
08
09
1-
#194500
1"
18
19
0-
1s
0t
0v
0u
1;
#195000
0"
08
09
1-
#195500
1"
18
19
0-
1v
0;
1:
#196000
0"
08
09
1-
#196500
1"
18
19
0-
0v
1u
1>
0=
0:
0?
#197000
0"
08
09
1-
#197500
1"
18
19
0-
0@
0s
0u
0A
1?
0>
1;
0?
#198000
0"
08
09
1-
#198500
1"
18
19
0-
1v
0;
1:
#199000
0"
08
09
1-
#199500
1"
18
19
0-
0v
1u
1;
#200000
0"
08
09
1-
#200500
1"
18
19
0-
1v
1<
0;
0:
#201000
0"
08
09
1-
#201500
1"
18
19
0-
1t
0v
0u
1;
#202000
0"
08
09
1-
#202500
1"
18
19
0-
1v
0;
1:
#203000
0"
08
09
1-
#203500
1"
18
19
0-
0v
1u
1;
#204000
0"
08
09
1-
#204500
1"
18
19
0-
1v
1=
0<
0;
0:
#205000
0"
08
09
1-
#205500
1"
18
19
0-
1s
0t
0v
0u
1;
#206000
0"
08
09
1-
#206500
1"
18
19
0-
1v
0;
1:
#207000
0"
08
09
1-
#207500
1"
18
19
0-
0v
1u
1>
0=
0:
1?
#208000
0"
08
09
1-
#208500
1"
18
19
0-
1@
0s
0u
1A
0?
0>
1;
1?
#209000
0"
08
09
1-
#209500
1"
18
19
0-
1v
0;
1:
#210000
b0 !
0"
0z
08
09
1-
1N
1L
#210500
1"
18
19
0-
0v
1u
1;
#211000
0"
08
09
1-
#211500
1"
18
19
0-
1v
1<
0;
0:
#212000
0"
08
09
1-
#212500
1"
18
19
0-
1t
0v
0u
1;
#213000
0"
08
09
1-
#213500
1"
18
19
0-
1v
0;
1:
#214000
0"
08
09
1-
#214500
1"
18
19
0-
0v
1u
1;
#215000
0"
08
09
1-
#215500
1"
18
19
0-
1v
1=
0<
0;
0:
#216000
0"
08
09
1-
#216500
1"
18
19
0-
1s
0t
0v
0u
1;
#217000
0"
08
09
1-
#217500
1"
18
19
0-
1v
0;
1:
#218000
0"
08
09
1-
#218500
1"
18
19
0-
0v
1u
1>
0=
0:
0?
#219000
0"
08
09
1-
#219500
1"
18
19
0-
0@
0s
0u
0A
1?
0>
1;
0?
#220000
0"
08
09
1-
#220500
1"
18
19
0-
1v
0;
1:
#221000
0"
08
09
1-
#221500
1"
18
19
0-
0v
1u
1;
#222000
0"
08
09
1-
#222500
1"
18
19
0-
1v
1<
0;
0:
#223000
0"
08
09
1-
#223500
1"
18
19
0-
1t
0v
0u
1;
#224000
0"
08
09
1-
#224500
1"
18
19
0-
1v
0;
1:
#225000
0"
08
09
1-
#225500
1"
18
19
0-
0v
1u
1;
#226000
0"
08
09
1-
#226500
1"
18
19
0-
1v
1=
0<
0;
0:
#227000
0"
08
09
1-
#227500
1"
18
19
0-
1s
0t
0v
0u
1;
#228000
0"
08
09
1-
#228500
1"
18
19
0-
1v
0;
1:
#229000
0"
08
09
1-
#229500
1"
18
19
0-
0v
1u
1>
0=
0:
1?
#230000
b100 !
0"
1x
08
09
1-
0B
#230500
1"
18
19
0-
1@
0s
0u
1A
0?
0>
1;
1?
1O
1M
0E
1g
0[
1Q
0N
1h
0e
#231000
0"
08
09
1-
#231500
1"
18
19
0-
1v
0;
1:
#232000
0"
08
09
1-
#232500
1"
18
19
0-
0v
1u
1;
#233000
0"
08
09
1-
#233500
1"
18
19
0-
1v
1<
0;
0:
#234000
0"
08
09
1-
#234500
1"
18
19
0-
1t
0v
0u
1;
#235000
0"
08
09
1-
#235500
1"
18
19
0-
1v
0;
1:
#236000
0"
08
09
1-
#236500
1"
18
19
0-
0v
1u
1;
#237000
0"
08
09
1-
#237500
1"
18
19
0-
1v
1=
0<
0;
0:
#238000
0"
08
09
1-
#238500
1"
18
19
0-
1s
0t
0v
0u
1;
#239000
0"
08
09
1-
#239500
1"
18
19
0-
1v
0;
1:
#240000
0"
08
09
1-
#240500
1"
18
19
0-
0v
1u
1>
0=
0:
0?
#241000
0"
08
09
1-
#241500
1"
18
19
0-
0@
0s
0u
0A
1?
0>
1;
0?
#242000
0"
08
09
1-
#242500
1"
18
19
0-
1v
0;
1:
#243000
0"
08
09
1-
#243500
1"
18
19
0-
0v
1u
1;
#244000
0"
08
09
1-
#244500
1"
18
19
0-
1v
1<
0;
0:
#245000
0"
08
09
1-
#245500
1"
18
19
0-
1t
0v
0u
1;
#246000
0"
08
09
1-
#246500
1"
18
19
0-
1v
0;
1:
#247000
0"
08
09
1-
#247500
1"
18
19
0-
0v
1u
1;
#248000
0"
08
09
1-
#248500
1"
18
19
0-
1v
1=
0<
0;
0:
#249000
0"
08
09
1-
#249500
1"
18
19
0-
1s
0t
0v
0u
1;
#250000
b0 !
0"
0x
08
09
1-
1F
1B
#250500
1"
18
19
0-
1v
0;
1:
#251000
0"
08
09
1-
#251500
1"
18
19
0-
0v
1u
1>
0=
0:
1?
#252000
0"
08
09
1-
#252500
1"
18
19
0-
1@
0s
0u
1A
0?
0>
1;
1?
1i
0f
0O
1G
1E
1l
17
0g
1P
0F
1p
0o
0a
0h
07
16
1a
1'
0)
#253000
0"
08
09
1-
#253500
1"
18
19
0-
1v
0;
1:
#254000
0"
08
09
1-
#254500
1"
18
19
0-
0v
1u
1;
#255000
0"
08
09
1-
#255500
1"
18
19
0-
1v
1<
0;
0:
#256000
0"
08
09
1-
#256500
1"
18
19
0-
1t
0v
0u
1;
#257000
0"
08
09
1-
#257500
1"
18
19
0-
1v
0;
1:
#258000
0"
08
09
1-
#258500
1"
18
19
0-
0v
1u
1;
#259000
0"
08
09
1-
#259500
1"
18
19
0-
1v
1=
0<
0;
0:
#260000
0"
08
09
1-
#260500
1"
18
19
0-
1s
0t
0v
0u
1;
#261000
0"
08
09
1-
#261500
1"
18
19
0-
1v
0;
1:
#262000
0"
08
09
1-
#262500
1"
18
19
0-
0v
1u
1>
0=
0:
0?
#263000
0"
08
09
1-
#263500
1"
18
19
0-
0@
0s
0u
0A
1?
0>
1;
0?
#264000
0"
08
09
1-
#264500
1"
18
19
0-
1v
0;
1:
#265000
0"
08
09
1-
#265500
1"
18
19
0-
0v
1u
1;
#266000
0"
08
09
1-
#266500
1"
18
19
0-
1v
1<
0;
0:
#267000
0"
08
09
1-
#267500
1"
18
19
0-
1t
0v
0u
1;
#268000
0"
08
09
1-
#268500
1"
18
19
0-
1v
0;
1:
#269000
0"
08
09
1-
#269500
1"
18
19
0-
0v
1u
1;
#270000
b100 !
0"
1x
08
09
1-
0B
#270500
1"
18
19
0-
1v
1=
0<
0;
0:
#271000
0"
08
09
1-
#271500
1"
18
19
0-
1s
0t
0v
0u
1;
#272000
0"
08
09
1-
#272500
1"
18
19
0-
1v
0;
1:
#273000
0"
08
09
1-
#273500
1"
18
19
0-
0v
1u
1>
0=
0:
1?
#274000
0"
08
09
1-
#274500
1"
18
19
0-
1@
0s
0u
1A
0?
0>
1;
1?
0i
0G
0E
14
0l
0j
06
1[
0Q
0P
1k
1R
1q
1m
0R
16
17
1(
1+
0&
#275000
0"
08
09
1-
#275500
1"
18
19
0-
1v
0;
1:
#276000
0"
08
09
1-
#276500
1"
18
19
0-
0v
1u
1;
#277000
0"
08
09
1-
#277500
1"
18
19
0-
1v
1<
0;
0:
#278000
0"
08
09
1-
#278500
1"
18
19
0-
1t
0v
0u
1;
#279000
0"
08
09
1-
#279500
1"
18
19
0-
1v
0;
1:
#280000
0"
08
09
1-
#280500
1"
18
19
0-
0v
1u
1;
#281000
0"
08
09
1-
#281500
1"
18
19
0-
1v
1=
0<
0;
0:
#282000
0"
08
09
1-
#282500
1"
18
19
0-
1s
0t
0v
0u
1;
#283000
0"
08
09
1-
#283500
1"
18
19
0-
1v
0;
1:
#284000
0"
08
09
1-
#284500
1"
18
19
0-
0v
1u
1>
0=
0:
0?
#285000
0"
08
09
1-
#285500
1"
18
19
0-
0@
0s
0u
0A
1?
0>
1;
0?
#286000
0"
08
09
1-
#286500
1"
18
19
0-
1v
0;
1:
#287000
0"
08
09
1-
#287500
1"
18
19
0-
0v
1u
1;
#288000
0"
08
09
1-
#288500
1"
18
19
0-
1v
1<
0;
0:
#289000
0"
08
09
1-
#289500
1"
18
19
0-
1t
0v
0u
1;
#290000
0"
08
09
1-
#290500
1"
18
19
0-
1v
0;
1:
#291000
0"
08
09
1-
#291500
1"
18
19
0-
0v
1u
1;
#292000
0"
08
09
1-
#292500
1"
18
19
0-
1v
1=
0<
0;
0:
#293000
0"
08
09
1-
#293500
1"
18
19
0-
1s
0t
0v
0u
1;
#294000
0"
08
09
1-
#294500
1"
18
19
0-
1v
0;
1:
#295000
0"
08
09
1-
#295500
1"
18
19
0-
0v
1u
1>
0=
0:
1?
#296000
0"
08
09
1-
