LAB03/simulation/qsim/lab03.msim.vcd
$comment
	File created using the following command:
		vcd file lab03.msim.vcd -direction
$end
$date
	Thu Mar 08 22:18:46 2018
$end
$version
	ModelSim Version 10.1d
$end
$timescale
	1ps
$end
$scope module lab03_vlg_vec_tst $end
$var reg 1 ! clk_27 $end
$var reg 1 " key2 $end
$var reg 1 # key3 $end
$var reg 8 $ S [7:0] $end
$var wire 1 % HEX0 [6] $end
$var wire 1 & HEX0 [5] $end
$var wire 1 ' HEX0 [4] $end
$var wire 1 ( HEX0 [3] $end
$var wire 1 ) HEX0 [2] $end
$var wire 1 * HEX0 [1] $end
$var wire 1 + HEX0 [0] $end
$var wire 1 , HEX1 [6] $end
$var wire 1 - HEX1 [5] $end
$var wire 1 . HEX1 [4] $end
$var wire 1 / HEX1 [3] $end
$var wire 1 0 HEX1 [2] $end
$var wire 1 1 HEX1 [1] $end
$var wire 1 2 HEX1 [0] $end
$var wire 1 3 HEX2 [6] $end
$var wire 1 4 HEX2 [5] $end
$var wire 1 5 HEX2 [4] $end
$var wire 1 6 HEX2 [3] $end
$var wire 1 7 HEX2 [2] $end
$var wire 1 8 HEX2 [1] $end
$var wire 1 9 HEX2 [0] $end
$var wire 1 : HEX3 [6] $end
$var wire 1 ; HEX3 [5] $end
$var wire 1 < HEX3 [4] $end
$var wire 1 = HEX3 [3] $end
$var wire 1 > HEX3 [2] $end
$var wire 1 ? HEX3 [1] $end
$var wire 1 @ HEX3 [0] $end
$var wire 1 A HEX4 [6] $end
$var wire 1 B HEX4 [5] $end
$var wire 1 C HEX4 [4] $end
$var wire 1 D HEX4 [3] $end
$var wire 1 E HEX4 [2] $end
$var wire 1 F HEX4 [1] $end
$var wire 1 G HEX4 [0] $end
$var wire 1 H led $end
$var wire 1 I saida_contador [3] $end
$var wire 1 J saida_contador [2] $end
$var wire 1 K saida_contador [1] $end
$var wire 1 L saida_contador [0] $end
$var wire 1 M soma_exibir [7] $end
$var wire 1 N soma_exibir [6] $end
$var wire 1 O soma_exibir [5] $end
$var wire 1 P soma_exibir [4] $end
$var wire 1 Q soma_exibir [3] $end
$var wire 1 R soma_exibir [2] $end
$var wire 1 S soma_exibir [1] $end
$var wire 1 T soma_exibir [0] $end
$var wire 1 U sampler $end
$scope module i1 $end
$var wire 1 V gnd $end
$var wire 1 W vcc $end
$var wire 1 X unknown $end
$var tri1 1 Y devclrn $end
$var tri1 1 Z devpor $end
$var tri1 1 [ devoe $end
$var wire 1 \ DISP2|outt[4]~27_combout $end
$var wire 1 ] DISP2|outt[4]~31_combout $end
$var wire 1 ^ DISP2|outt[4]~32_combout $end
$var wire 1 _ DISP2|outt[6]~39_combout $end
$var wire 1 ` DISP2|outt[6]~41_combout $end
$var wire 1 a DISP2|outt[6]~43_combout $end
$var wire 1 b DISP2|outt[6]~51_combout $end
$var wire 1 c DISP2|outt[6]~52_combout $end
$var wire 1 d DISP2|outt[6]~53_combout $end
$var wire 1 e DISPLAYTOTAL|LessThan0~0_combout $end
$var wire 1 f MAQUINONA|OPERA|Somador|SOMA1|s~0_combout $end
$var wire 1 g DISP2|outt[6]~59_combout $end
$var wire 1 h DISP3|outt[4]~7_combout $end
$var wire 1 i DISP3|outt[4]~12_combout $end
$var wire 1 j DISP3|outt[4]~10_combout $end
$var wire 1 k DISP2|outt[6]~5_combout $end
$var wire 1 l DISP2|outt[6]~6_combout $end
$var wire 1 m DISP3|outt[6]~25_combout $end
$var wire 1 n DISP3|outt[6]~32_combout $end
$var wire 1 o DISP3|outt[1]~38_combout $end
$var wire 1 p DISP3|outt[1]~41_combout $end
$var wire 1 q DISPLAYTOTAL|LessThan4~3_combout $end
$var wire 1 r DISP2|outt[6]~65_combout $end
$var wire 1 s DISP2|outt[6]~66_combout $end
$var wire 1 t key2~combout $end
$var wire 1 u clk_27~combout $end
$var wire 1 v BS|y_present.a~0_combout $end
$var wire 1 w BS|y_present.a~regout $end
$var wire 1 x BS|y_next.b~0_combout $end
$var wire 1 y BS|y_present.b~regout $end
$var wire 1 z MAQUINONA|OPERA|COMPARA0|LessThan0~1_cout $end
$var wire 1 { MAQUINONA|OPERA|COMPARA0|LessThan0~3_cout $end
$var wire 1 | MAQUINONA|OPERA|COMPARA0|LessThan0~5_cout $end
$var wire 1 } MAQUINONA|OPERA|COMPARA0|LessThan0~7_cout $end
$var wire 1 ~ MAQUINONA|OPERA|COMPARA0|LessThan0~9_cout $end
$var wire 1 !! MAQUINONA|OPERA|COMPARA0|LessThan0~11_cout $end
$var wire 1 "! MAQUINONA|OPERA|COMPARA0|LessThan0~13_cout $end
$var wire 1 #! MAQUINONA|OPERA|COMPARA0|LessThan0~14_combout $end
$var wire 1 $! MAQUINONA|CONTROL|FFJK1|qS~0_combout $end
$var wire 1 %! MAQUINONA|CONTROL|FFJK1|qS~regout $end
$var wire 1 &! MAQUINONA|CONTROL|FFJK2|qS~0_combout $end
$var wire 1 '! MAQUINONA|CONTROL|FFJK2|qS~regout $end
$var wire 1 (! MAQUINONA|CONTROL|d~combout $end
$var wire 1 )! DIV|cnt~0_combout $end
$var wire 1 *! DIV|cnt~regout $end
$var wire 1 +! DIV|ax~0_combout $end
$var wire 1 ,! DIV|ax~regout $end
$var wire 1 -! COUNTER|FFD0|qS~0_combout $end
$var wire 1 .! key3~combout $end
$var wire 1 /! COUNTER|FFD0|qS~regout $end
$var wire 1 0! COUNTER|FFD1|qS~0_combout $end
$var wire 1 1! COUNTER|FFD1|qS~regout $end
$var wire 1 2! COUNTER|FFD2|qS~0_combout $end
$var wire 1 3! COUNTER|FFD2|qS~regout $end
$var wire 1 4! COUNTER|next_D[3]~0_combout $end
$var wire 1 5! COUNTER|FFD3|qS~regout $end
$var wire 1 6! ~GND~combout $end
$var wire 1 7! MAQUINONA|OPERA|Registrador|FFD1|qS~0_combout $end
$var wire 1 8! MAQUINONA|clearVerdadeiro~0_combout $end
$var wire 1 9! MAQUINONA|OPERA|Registrador|FFD1|qS~regout $end
$var wire 1 :! MAQUINONA|OPERA|Somador|SOMA2|s~1_cout $end
$var wire 1 ;! MAQUINONA|OPERA|Somador|SOMA2|s~2_combout $end
$var wire 1 <! MAQUINONA|CONTROL|ld_tot~combout $end
$var wire 1 =! MAQUINONA|OPERA|Registrador|FFD2|qS~regout $end
$var wire 1 >! MAQUINONA|OPERA|Somador|SOMA2|s~3 $end
$var wire 1 ?! MAQUINONA|OPERA|Somador|SOMA2|s~4_combout $end
$var wire 1 @! MAQUINONA|OPERA|Registrador|FFD3|qS~regout $end
$var wire 1 A! MAQUINONA|OPERA|Somador|SOMA2|s~5 $end
$var wire 1 B! MAQUINONA|OPERA|Somador|SOMA2|s~6_combout $end
$var wire 1 C! MAQUINONA|OPERA|Registrador|FFD4|qS~regout $end
$var wire 1 D! MAQUINONA|OPERA|Somador|SOMA2|s~7 $end
$var wire 1 E! MAQUINONA|OPERA|Somador|SOMA2|s~8_combout $end
$var wire 1 F! MAQUINONA|OPERA|Registrador|FFD5|qS~regout $end
$var wire 1 G! MAQUINONA|OPERA|Somador|SOMA2|s~9 $end
$var wire 1 H! MAQUINONA|OPERA|Somador|SOMA2|s~10_combout $end
$var wire 1 I! MAQUINONA|OPERA|Registrador|FFD6|qS~regout $end
$var wire 1 J! MAQUINONA|OPERA|Somador|SOMA2|s~11 $end
$var wire 1 K! MAQUINONA|OPERA|Somador|SOMA2|s~12_combout $end
$var wire 1 L! MAQUINONA|OPERA|Registrador|FFD7|qS~2_combout $end
$var wire 1 M! MAQUINONA|OPERA|Registrador|FFD7|qS~regout $end
$var wire 1 N! MAQUINONA|OPERA|Registrador|FFD8|qS~0_combout $end
$var wire 1 O! MAQUINONA|OPERA|Registrador|FFD8|qS~regout $end
$var wire 1 P! DISPLAYMOEDA|aux_bin~1_combout $end
$var wire 1 Q! DISPLAYMOEDA|aux_bin~2_combout $end
$var wire 1 R! DISPLAYMOEDA|b2cd[2]~0_combout $end
$var wire 1 S! DISPLAYMOEDA|b2cd[1]~1_combout $end
$var wire 1 T! DISPLAYMOEDA|aux_bin~0_combout $end
$var wire 1 U! DISPLAYMOEDA|b2cd[3]~2_combout $end
$var wire 1 V! DISP0|outt[0]~17_combout $end
$var wire 1 W! DISP0|outt[1]~25_combout $end
$var wire 1 X! DISP0|outt[1]~26_combout $end
$var wire 1 Y! DISP0|outt[2]~18_combout $end
$var wire 1 Z! DISP0|outt[3]~19_combout $end
$var wire 1 [! DISP0|outt[3]~20_combout $end
$var wire 1 \! DISP0|outt[3]~21_combout $end
$var wire 1 ]! DISP0|outt[3]~22_combout $end
$var wire 1 ^! DISP0|outt[4]~3_combout $end
$var wire 1 _! DISP0|outt[4]~4_combout $end
$var wire 1 `! DISP0|outt[4]~24_combout $end
$var wire 1 a! DISP0|outt[5]~23_combout $end
$var wire 1 b! DISP0|outt[6]~13_combout $end
$var wire 1 c! DISP0|outt[6]~10_combout $end
$var wire 1 d! DISP0|outt[6]~15_combout $end
$var wire 1 e! DISP0|outt[6]~14_combout $end
$var wire 1 f! DISP0|outt[6]~16_combout $end
$var wire 1 g! DISPLAYMOEDA|b2cd[5]~3_combout $end
$var wire 1 h! DISPLAYMOEDA|LessThan0~0_combout $end
$var wire 1 i! DISPLAYMOEDA|b2cd[4]~4_combout $end
$var wire 1 j! DISP1|outt[0]~9_combout $end
$var wire 1 k! DISP1|outt[1]~3_combout $end
$var wire 1 l! DISP1|outt[1]~13_combout $end
$var wire 1 m! DISP1|Equal9~3_combout $end
$var wire 1 n! DISP1|Equal9~6_combout $end
$var wire 1 o! DISP1|outt[4]~10_combout $end
$var wire 1 p! DISP1|outt[5]~11_combout $end
$var wire 1 q! DISP1|outt[6]~12_combout $end
$var wire 1 r! DISPLAYTOTAL|aux_bin~1_combout $end
$var wire 1 s! DISPLAYTOTAL|aux_bin~2_combout $end
$var wire 1 t! DISPLAYTOTAL|aux_bin~3_combout $end
$var wire 1 u! DISPLAYTOTAL|aux_bin~5_combout $end
$var wire 1 v! DISPLAYTOTAL|aux_bin~7_combout $end
$var wire 1 w! DISPLAYTOTAL|aux_bin~0_combout $end
$var wire 1 x! DISPLAYTOTAL|aux_bin~4_combout $end
$var wire 1 y! DISPLAYTOTAL|aux_bin~8_combout $end
$var wire 1 z! DISPLAYTOTAL|b3cd[2]~0_combout $end
$var wire 1 {! DISPLAYTOTAL|b3cd[1]~1_combout $end
$var wire 1 |! DISPLAYTOTAL|aux_bin~6_combout $end
$var wire 1 }! DISPLAYTOTAL|b3cd[3]~2_combout $end
$var wire 1 ~! DISP2|outt[0]~19_combout $end
$var wire 1 !" DISP2|outt[1]~67_combout $end
$var wire 1 "" DISP2|outt[1]~68_combout $end
$var wire 1 #" DISP2|outt[2]~20_combout $end
$var wire 1 $" DISP2|outt~21_combout $end
$var wire 1 %" DISP2|outt[3]~22_combout $end
$var wire 1 &" DISP2|outt[3]~23_combout $end
$var wire 1 '" DISP2|outt[3]~24_combout $end
$var wire 1 (" DISP2|outt[4]~25_combout $end
$var wire 1 )" DISPLAYTOTAL|aux_bin~9_combout $end
$var wire 1 *" DISP2|outt[4]~26_combout $end
$var wire 1 +" DISP2|outt[6]~46_combout $end
$var wire 1 ," DISP2|outt[4]~58_combout $end
$var wire 1 -" DISP2|outt[4]~28_combout $end
$var wire 1 ." DISP2|outt[4]~29_combout $end
$var wire 1 /" DISPLAYTOTAL|aux_bin~10_combout $end
$var wire 1 0" DISP2|outt[4]~30_combout $end
$var wire 1 1" DISP2|outt[4]~33_combout $end
$var wire 1 2" DISP2|outt[4]~34_combout $end
$var wire 1 3" DISP2|outt[4]~35_combout $end
$var wire 1 4" DISP2|outt[4]~36_combout $end
$var wire 1 5" DISP2|outt[6]~37_combout $end
$var wire 1 6" DISP2|outt[6]~40_combout $end
$var wire 1 7" DISP2|outt[6]~38_combout $end
$var wire 1 8" DISP2|outt[6]~42_combout $end
$var wire 1 9" DISP2|outt[6]~44_combout $end
$var wire 1 :" DISP2|outt[6]~45_combout $end
$var wire 1 ;" DISP2|outt[6]~47_combout $end
$var wire 1 <" DISP2|outt[4]~48_combout $end
$var wire 1 =" DISP2|outt[5]~49_combout $end
$var wire 1 >" DISP2|outt[6]~50_combout $end
$var wire 1 ?" DISP2|outt[6]~12_combout $end
$var wire 1 @" DISP2|outt[6]~8_combout $end
$var wire 1 A" DISP2|outt[6]~63_combout $end
$var wire 1 B" DISP2|outt[6]~15_combout $end
$var wire 1 C" DISP2|outt[6]~64_combout $end
$var wire 1 D" DISP2|outt[6]~60_combout $end
$var wire 1 E" DISP2|outt[6]~61_combout $end
$var wire 1 F" DISP2|outt[6]~62_combout $end
$var wire 1 G" DISP2|outt[6]~54_combout $end
$var wire 1 H" DISP2|outt[6]~55_combout $end
$var wire 1 I" DISP2|outt[6]~56_combout $end
$var wire 1 J" DISP2|outt[6]~57_combout $end
$var wire 1 K" DISPLAYTOTAL|aux_bin~14_combout $end
$var wire 1 L" DISPLAYTOTAL|aux_bin~15_combout $end
$var wire 1 M" DISPLAYTOTAL|aux_bin~12_combout $end
$var wire 1 N" DISPLAYTOTAL|aux_bin~13_combout $end
$var wire 1 O" DISPLAYTOTAL|aux_bin~17_combout $end
$var wire 1 P" DISPLAYTOTAL|b3cd[5]~3_combout $end
$var wire 1 Q" DISPLAYTOTAL|b3cd[4]~4_combout $end
$var wire 1 R" DISPLAYTOTAL|aux_bin~16_combout $end
$var wire 1 S" DISPLAYTOTAL|aux_bin~11_combout $end
$var wire 1 T" DISPLAYTOTAL|b3cd[6]~5_combout $end
$var wire 1 U" DISPLAYTOTAL|LessThan6~0_combout $end
$var wire 1 V" DISPLAYTOTAL|b3cd[6]~6_combout $end
$var wire 1 W" DISPLAYTOTAL|b3cd[7]~7_combout $end
$var wire 1 X" DISP3|outt[0]~56_combout $end
$var wire 1 Y" DISP3|outt[1]~42_combout $end
$var wire 1 Z" DISP3|outt[1]~40_combout $end
$var wire 1 [" DISP3|outt[1]~39_combout $end
$var wire 1 \" DISP3|outt[1]~37_combout $end
$var wire 1 ]" DISP3|outt[1]~67_combout $end
$var wire 1 ^" DISP3|outt[1]~47_combout $end
$var wire 1 _" DISP3|outt[1]~68_combout $end
$var wire 1 `" DISP3|outt[2]~57_combout $end
$var wire 1 a" DISP3|outt[3]~58_combout $end
$var wire 1 b" DISP3|outt[3]~59_combout $end
$var wire 1 c" DISP3|outt[3]~60_combout $end
$var wire 1 d" DISP3|outt[4]~5_combout $end
$var wire 1 e" DISP3|outt[4]~4_combout $end
$var wire 1 f" DISP3|outt[4]~50_combout $end
$var wire 1 g" DISP3|outt[4]~8_combout $end
$var wire 1 h" DISP3|outt[4]~51_combout $end
$var wire 1 i" DISP3|outt[4]~65_combout $end
$var wire 1 j" DISP3|outt[4]~66_combout $end
$var wire 1 k" DISP3|outt[4]~9_combout $end
$var wire 1 l" DISP3|outt[4]~63_combout $end
$var wire 1 m" DISP3|outt[3]~61_combout $end
$var wire 1 n" DISP3|outt[5]~62_combout $end
$var wire 1 o" DISP3|outt[6]~23_combout $end
$var wire 1 p" DISP3|outt[6]~22_combout $end
$var wire 1 q" DISP3|outt[6]~52_combout $end
$var wire 1 r" DISP3|outt[6]~26_combout $end
$var wire 1 s" DISP3|outt[6]~53_combout $end
$var wire 1 t" DISP3|outt[6]~30_combout $end
$var wire 1 u" DISP3|outt[6]~54_combout $end
$var wire 1 v" DISP3|outt[6]~55_combout $end
$var wire 1 w" DISP3|outt[6]~64_combout $end
$var wire 1 x" DISPLAYTOTAL|LessThan4~9_combout $end
$var wire 1 y" DISPLAYTOTAL|LessThan6~1_combout $end
$var wire 1 z" DISP4|Equal8~0_combout $end
$var wire 1 {" DISP4|Equal8~1_combout $end
$var wire 1 |" DISP4|outt[5]~0_combout $end
$var wire 1 }" ROM0|altsyncram_component|auto_generated|q_a [5] $end
$var wire 1 ~" ROM0|altsyncram_component|auto_generated|q_a [4] $end
$var wire 1 !# ROM0|altsyncram_component|auto_generated|q_a [3] $end
$var wire 1 "# ROM0|altsyncram_component|auto_generated|q_a [2] $end
$var wire 1 ## ROM0|altsyncram_component|auto_generated|q_a [1] $end
$var wire 1 $# ROM0|altsyncram_component|auto_generated|q_a [0] $end
$var wire 1 %# S~combout [7] $end
$var wire 1 &# S~combout [6] $end
$var wire 1 '# S~combout [5] $end
$var wire 1 (# S~combout [4] $end
$var wire 1 )# S~combout [3] $end
$var wire 1 *# S~combout [2] $end
$var wire 1 +# S~combout [1] $end
$var wire 1 ,# S~combout [0] $end
$var wire 1 -# ROM0|altsyncram_component|auto_generated|ram_block1a0_PORTADATAOUT_bus [0] $end
$var wire 1 .# ROM0|altsyncram_component|auto_generated|ram_block1a2_PORTADATAOUT_bus [0] $end
$var wire 1 /# ROM0|altsyncram_component|auto_generated|ram_block1a5_PORTADATAOUT_bus [0] $end
$var wire 1 0# ROM0|altsyncram_component|auto_generated|ram_block1a3_PORTADATAOUT_bus [0] $end
$var wire 1 1# ROM0|altsyncram_component|auto_generated|ram_block1a4_PORTADATAOUT_bus [0] $end
$var wire 1 2# ROM0|altsyncram_component|auto_generated|ram_block1a1_PORTADATAOUT_bus [0] $end
$upscope $end
$upscope $end
$enddefinitions $end
#0
$dumpvars
0!
0"
1#
b10010110 $
0+
0*
0)
0(
0'
0&
1%
02
01
00
0/
0.
0-
1,
09
08
07
06
05
04
13
0@
0?
0>
0=
0<
0;
1:
0G
0F
0E
0D
0C
0B
1A
0H
0L
0K
0J
0I
0T
0S
0R
0Q
0P
0O
0N
0M
xU
0V
1W
xX
1Y
1Z
1[
0\
0]
0^
0_
0`
1a
0b
1c
1d
0e
0f
1g
0h
1i
1j
1k
0l
1m
1n
0o
0p
0q
1r
1s
0t
0u
1v
0w
1x
0y
0z
0{
1|
0}
1~
0!!
1"!
1#!
0$!
0%!
1&!
0'!
0(!
1)!
0*!
0+!
0,!
1-!
1.!
0/!
00!
01!
02!
03!
04!
05!
06!
07!
18!
09!
0:!
0;!
0<!
0=!
1>!
0?!
0@!
0A!
0B!
0C!
1D!
0E!
0F!
0G!
0H!
0I!
1J!
0K!
0L!
0M!
0N!
0O!
0P!
0Q!
0R!
0S!
0T!
0U!
0V!
0W!
0X!
0Y!
0Z!
1[!
0\!
0]!
0^!
0_!
0`!
0a!
1b!
1c!
1d!
1e!
1f!
1g!
0h!
1i!
0j!
0k!
0l!
0m!
0n!
0o!
1p!
0q!
0r!
0s!
0t!
0u!
0v!
0w!
0x!
0y!
0z!
0{!
0|!
0}!
0~!
0!"
0""
0#"
0$"
1%"
0&"
0'"
0("
0)"
0*"
0+"
0,"
0-"
0."
0/"
00"
11"
12"
03"
04"
15"
06"
17"
08"
09"
0:"
0;"
0<"
0="
0>"
0?"
0@"
0A"
0B"
0C"
1D"
1E"
1F"
1G"
1H"
0I"
1J"
1K"
1L"
0M"
0N"
1O"
1P"
1Q"
1R"
1S"
0T"
0U"
0V"
0W"
0X"
0Y"
0Z"
0["
0\"
0]"
0^"
0_"
0`"
0a"
1b"
0c"
0d"
0e"
0f"
1g"
0h"
0i"
1j"
1k"
0l"
1m"
0n"
1o"
1p"
1q"
1r"
1s"
1t"
1u"
1v"
1w"
0x"
0y"
1z"
0{"
0|"
0$#
0##
0"#
0!#
0~"
0}"
0,#
1+#
1*#
0)#
1(#
0'#
0&#
1%#
0-#
0.#
0/#
00#
01#
02#
$end
#50
1!
1u
0U
1*!
1+!
0)!
#100
0!
0u
1U
#150
1!
1u
0U
1,!
0*!
1)!
1'!
1y
1w
08!
0&!
1$!
0x
#151
1.#
1-#
1"#
1$#
1m!
1k!
0c!
0b!
1^!
1T!
1?!
0d!
1a!
1`!
1]!
1W!
1V!
0f!
1X!
1R!
1&
1'
1(
1+
1\!
0[!
0V!
0%
1*
0]!
0a!
0+
0(
0&
#200
0!
0u
1U
#250
1!
1u
0U
1*!
0+!
0)!
#300
0!
0u
1U
#350
1!
1u
0U
0,!
0*!
1)!
#400
0!
0u
1U
#450
1!
1u
0U
1*!
1+!
0)!
#500
0!
0u
1U
#550
1!
1u
0U
1,!
0*!
1)!
1/!
0'!
1%!
0y
0-!
1<!
17!
1&!
0$!
1L
#600
0!
0u
1U
#650
1!
1u
0U
1*!
0+!
0)!
#700
0!
0u
1U
#750
1!
1u
0U
0,!
0*!
1)!
#800
0!
0u
1U
#850
1!
1u
0U
1*!
1+!
0)!
#900
0!
0u
1U
#950
1!
1u
0U
1,!
0*!
1)!
1@!
19!
1'!
0%!
0u"
0q"
0H"
1B"
05"
13"
1-"
1,"
1|!
1A!
0?!
0k
0c
1b
0a
1I"
0D"
1="
14"
1'"
1!"
1~!
1f
0<!
1R
1T
1""
1z!
1B!
0s
0r
0d
1<"
1;!
14
16
19
1&"
0%"
0~!
0G"
18
15
0'"
0="
0I"
09
0J"
06
04
03
#951
10#
0.#
12#
0-#
1!#
0"#
1##
0$#
1c!
1b!
0^!
0T!
1Q!
0D!
0B!
0A!
1?!
1Z!
1S!
0>!
0;!
1]!
1V!
0f
1d!
0`!
0i!
0Z!
0X!
0S!
0R!
0W!
1E!
1D!
1B!
0]!
0V!
1A!
0?!
1>!
1;!
1(
1+
1f!
0p!
1o!
1j!
0\!
1[!
1]!
0E!
0D!
0B!
0A!
1?!
0'
0*
0(
0+
0]!
1E!
1D!
1B!
1%
1.
1/
12
1(
1-
0E!
0(
#1000
0!
0u
1U
#1050
1!
1u
0U
1*!
0+!
0)!
#1100
0!
0u
1U
#1150
1!
1u
0U
0,!
0*!
1)!
#1200
0!
0u
1U
#1250
1!
1u
0U
1*!
1+!
0)!
#1300
0!
0u
1U
#1350
1!
1u
0U
1,!
0*!
1)!
#1400
0!
0u
1U
#1450
1!
1u
0U
1*!
0+!
0)!
#1500
0!
0u
1U
#1550
1!
1u
0U
0,!
0*!
1)!
#1600
0!
0u
1U
#1650
1!
1u
0U
1*!
1+!
0)!
#1700
0!
0u
1U
#1750
1!
1u
0U
1,!
0*!
1)!
#1800
0!
0u
1U
#1850
1!
1u
0U
1*!
0+!
0)!
#1900
0!
0u
1U
#1950
1!
1u
0U
0,!
0*!
1)!
#2000
0!
0u
1U
#2050
1!
1u
0U
1*!
1+!
0)!
#2100
0!
0u
1U
#2150
1!
1u
0U
1,!
0*!
1)!
#2200
0!
0u
1U
#2250
1!
1u
0U
1*!
0+!
0)!
#2300
0!
0u
1U
#2350
1!
1u
0U
0,!
0*!
1)!
#2400
0!
0u
1U
#2450
1!
1u
0U
1*!
1+!
0)!
#2500
0!
0u
1U
#2550
1!
1u
0U
1,!
0*!
1)!
#2600
0!
0u
1U
#2650
1!
1u
0U
1*!
0+!
0)!
#2700
0!
0u
1U
#2750
1!
1u
0U
0,!
0*!
1)!
#2800
0!
0u
1U
#2850
1!
1u
0U
1*!
1+!
0)!
#2900
0!
0u
1U
#2950
1!
1u
0U
1,!
0*!
1)!
#3000
0!
0u
1U
#3050
1!
1u
0U
1*!
0+!
0)!
#3100
0!
0u
1U
#3150
1!
1u
0U
0,!
0*!
1)!
#3200
0!
0u
1U
#3250
1!
1u
0U
1*!
1+!
0)!
#3300
0!
0u
1U
#3350
1!
1u
0U
1,!
0*!
1)!
#3400
0!
0u
1U
#3450
1!
1u
0U
1*!
0+!
0)!
#3500
0!
0u
1U
#3550
1!
1u
0U
0,!
0*!
1)!
#3600
0!
0u
1U
#3650
1!
1u
0U
1*!
1+!
0)!
#3700
0!
0u
1U
#3750
1!
1u
0U
1,!
0*!
1)!
#3800
0!
0u
1U
#3850
1!
1u
0U
1*!
0+!
0)!
#3900
0!
0u
1U
#3950
1!
1u
0U
0,!
0*!
1)!
#4000
0!
0u
1U
#4050
1!
1u
0U
1*!
1+!
0)!
#4100
0!
0u
1U
#4150
1!
1u
0U
1,!
0*!
1)!
#4200
0!
0u
1U
#4250
1!
1u
0U
1*!
0+!
0)!
#4300
0!
0u
1U
#4350
1!
1u
0U
0,!
0*!
1)!
#4400
0!
0u
1U
#4450
1!
1u
0U
1*!
1+!
0)!
#4500
0!
0u
1U
#4550
1!
1u
0U
1,!
0*!
1)!
#4600
0!
0u
1U
#4650
1!
1u
0U
1*!
0+!
0)!
#4700
0!
0u
1U
#4750
1!
1u
0U
0,!
0*!
1)!
#4800
0!
0u
1U
#4850
1!
1u
0U
1*!
1+!
0)!
#4900
0!
0u
1U
#4950
1!
1u
0U
1,!
0*!
1)!
#5000
0!
0u
1U
#5050
1!
1u
0U
1*!
0+!
0)!
#5100
0!
0u
1U
#5150
1!
1u
0U
0,!
0*!
1)!
#5200
0!
0u
1U
#5250
1!
1u
0U
1*!
1+!
0)!
#5300
0!
0u
1U
#5350
1!
1u
0U
1,!
0*!
1)!
#5400
0!
0u
1U
#5450
1!
1u
0U
1*!
0+!
0)!
#5500
0!
0u
1U
#5550
1!
1u
0U
0,!
0*!
1)!
#5600
0!
0u
1U
#5650
1!
1u
0U
1*!
1+!
0)!
#5700
0!
0u
1U
#5750
1!
1u
0U
1,!
0*!
1)!
#5800
0!
0u
1U
#5850
1!
1u
0U
1*!
0+!
0)!
#5900
0!
0u
1U
#5950
1!
1u
0U
0,!
0*!
1)!
#6000
0!
0u
1U
#6050
1!
1u
0U
1*!
1+!
0)!
#6100
0!
0u
1U
#6150
1!
1u
0U
1,!
0*!
1)!
#6200
0!
0u
1U
#6250
1!
1u
0U
1*!
0+!
0)!
#6300
0!
0u
1U
#6350
1!
1u
0U
0,!
0*!
1)!
#6400
0!
0u
1U
#6450
1!
1u
0U
1*!
1+!
0)!
#6500
0!
0u
1U
#6550
1!
1u
0U
1,!
0*!
1)!
#6600
0!
0u
1U
#6650
1!
1u
0U
1*!
0+!
0)!
#6700
0!
0u
1U
#6750
1!
1u
0U
0,!
0*!
1)!
#6800
0!
0u
1U
#6850
1!
1u
0U
1*!
1+!
0)!
#6900
0!
0u
1U
#6950
1!
1u
0U
1,!
0*!
1)!
#7000
0!
0u
1U
#7050
1!
1u
0U
1*!
0+!
0)!
#7100
0!
0u
1U
#7150
1!
1u
0U
0,!
0*!
1)!
#7200
0!
0u
1U
#7250
1!
1u
0U
1*!
1+!
0)!
#7300
0!
0u
1U
#7350
1!
1u
0U
1,!
0*!
1)!
#7400
0!
0u
1U
#7450
1!
1u
0U
1*!
0+!
0)!
#7500
0!
0u
1U
#7550
1!
1u
0U
0,!
0*!
1)!
#7600
0!
0u
1U
#7650
1!
1u
0U
1*!
1+!
0)!
#7700
0!
0u
1U
#7750
1!
1u
0U
1,!
0*!
1)!
#7800
0!
0u
1U
#7850
1!
1u
0U
1*!
0+!
0)!
#7900
0!
0u
1U
#7950
1!
1u
0U
0,!
0*!
1)!
#8000
0!
0u
1U
#8050
1!
1u
0U
1*!
1+!
0)!
#8100
0!
0u
1U
#8150
1!
1u
0U
1,!
0*!
1)!
#8200
0!
0u
1U
#8250
1!
1u
0U
1*!
0+!
0)!
#8300
0!
0u
1U
#8350
1!
1u
0U
0,!
0*!
1)!
#8400
0!
0u
1U
#8450
1!
1u
0U
1*!
1+!
0)!
#8500
0!
0u
1U
#8550
1!
1u
0U
1,!
0*!
1)!
#8600
0!
0u
1U
#8650
1!
1u
0U
1*!
0+!
0)!
#8700
0!
0u
1U
#8750
1!
1u
0U
0,!
0*!
1)!
#8800
0!
0u
1U
#8850
1!
1u
0U
1*!
1+!
0)!
#8900
0!
0u
1U
#8950
1!
1u
0U
1,!
0*!
1)!
#9000
0!
0u
1U
#9050
1!
1u
0U
1*!
0+!
0)!
#9100
0!
0u
1U
#9150
1!
1u
0U
0,!
0*!
1)!
#9200
0!
0u
1U
#9250
1!
1u
0U
1*!
1+!
0)!
#9300
0!
0u
1U
#9350
1!
1u
0U
1,!
0*!
1)!
#9400
0!
0u
1U
#9450
1!
1u
0U
1*!
0+!
0)!
#9500
0!
0u
1U
#9550
1!
1u
0U
0,!
0*!
1)!
#9600
0!
0u
1U
#9650
1!
1u
0U
1*!
1+!
0)!
#9700
0!
0u
1U
#9750
1!
1u
0U
1,!
0*!
1)!
#9800
0!
0u
1U
#9850
1!
1u
0U
1*!
0+!
0)!
#9900
0!
0u
1U
#9950
1!
1u
0U
0,!
0*!
1)!
#10000
0!
0u
1U
#10050
1!
1u
0U
1*!
1+!
0)!
#10100
0!
0u
1U
#10150
1!
1u
0U
1,!
0*!
1)!
#10200
0!
0u
1U
#10250
1!
1u
0U
1*!
0+!
0)!
#10300
0!
0u
1U
#10350
1!
1u
0U
0,!
0*!
1)!
#10400
0!
0u
1U
#10450
1!
1u
0U
1*!
1+!
0)!
#10500
0!
0u
1U
#10550
1!
1u
0U
1,!
0*!
1)!
#10600
0!
0u
1U
#10650
1!
1u
0U
1*!
0+!
0)!
#10700
0!
0u
1U
#10750
1!
1u
0U
0,!
0*!
1)!
#10800
0!
0u
1U
#10850
1!
1u
0U
1*!
1+!
0)!
#10900
0!
0u
1U
#10950
1!
1u
0U
1,!
0*!
1)!
#11000
0!
0u
1U
#11050
1!
1u
0U
1*!
0+!
0)!
#11100
0!
0u
1U
#11150
1!
1u
0U
0,!
0*!
1)!
#11200
0!
0u
1U
#11250
1!
1u
0U
1*!
1+!
0)!
#11300
0!
0u
1U
#11350
1!
1u
0U
1,!
0*!
1)!
#11400
0!
0u
1U
#11450
1!
1u
0U
1*!
0+!
0)!
#11500
0!
0u
1U
#11550
1!
1u
0U
0,!
0*!
1)!
#11600
0!
0u
1U
#11650
1!
1u
0U
1*!
1+!
0)!
#11700
0!
0u
1U
#11750
1!
1u
0U
1,!
0*!
1)!
#11800
0!
0u
1U
#11850
1!
1u
0U
1*!
0+!
0)!
#11900
0!
0u
1U
#11950
1!
1u
0U
0,!
0*!
1)!
#12000
0!
0u
1U
#12050
1!
1u
0U
1*!
1+!
0)!
#12100
0!
0u
1U
